{
  "__inputs": [

  ],
  "__requires": [

  ],
  "annotations": {
    "list": [
      {
        "builtIn": 1,
        "datasource": "-- Grafana --",
        "enable": false,
        "hide": false,
        "iconColor": "#96D98D",
        "name": "deploy",
        "showIn": 0,
        "tags": [
          "deploy",
          "$environment"
        ],
        "type": "tags"
      },
      {
        "builtIn": 1,
        "datasource": "-- Grafana --",
        "enable": false,
        "hide": false,
        "iconColor": "#FFEE52",
        "name": "canary-deploy",
        "showIn": 0,
        "tags": [
          "deploy",
          "${environment}-cny"
        ],
        "type": "tags"
      },
      {
        "builtIn": 1,
        "datasource": "-- Grafana --",
        "enable": false,
        "hide": false,
        "iconColor": "#CA95E5",
        "name": "feature-flags",
        "showIn": 0,
        "tags": [
          "feature-flag",
          "${environment}"
        ],
        "type": "tags"
      }
    ]
  },
  "description": "Uploaded by https://gitlab.com/gitlab-com/runbooks/-/jobs/2522505129 at Mon May 30 12:51:40 UTC 2022",
  "editable": false,
  "gnetId": null,
  "graphTooltip": 1,
  "hideControls": false,
  "id": null,
  "links": [
    {
      "asDropdown": true,
      "icon": "dashboard",
      "includeVars": true,
      "keepTime": true,
      "tags": "type:ci-runners",
      "targetBlank": false,
      "title": "ci-runners Detail",
      "type": "dashboards",
      "url": ""
    },
    {
      "asDropdown": true,
      "icon": "dashboard",
      "includeVars": true,
      "keepTime": true,
      "tags": "ci-runners:incident-support",
      "targetBlank": false,
      "title": "ci-runners Incident Dashboards",
      "type": "dashboards",
      "url": ""
    }
  ],
  "panels": [
    {
      "content": "Made with ❤️ and [Grafonnet](https://github.com/grafana/grafonnet-lib). [Contribute to this dashboard on GitLab.com](https://gitlab.com/gitlab-com/runbooks/blob/master/dashboards)\n",
      "datasource": null,
      "gridPos": {
        "h": 2,
        "w": 24,
        "x": 0,
        "y": 110000
      },
      "id": 2,
      "mode": "markdown",
      "title": "Source",
      "type": "text"
    },
    {
      "bars": false,
      "dashLength": 10,
      "dashes": false,
      "datasource": "$PROMETHEUS_DS",
      "decimals": 2,
      "description": "Apdex is a measure of requests that complete within a tolerable period of time for the service. Higher is better.",
      "fill": 0,
      "fillGradient": 0,
      "gridPos": {
        "h": 6,
        "w": 6,
        "x": 0,
        "y": 1
      },
      "id": 3,
      "legend": {
        "alignAsTable": true,
        "avg": true,
        "current": true,
        "hideEmpty": true,
        "max": true,
        "min": true,
        "rightSide": false,
        "show": true,
        "total": false,
        "values": true
      },
      "lines": true,
      "linewidth": 2,
      "nullPointMode": "null",
      "options": {
        "dataLinks": [
          {
            "targetBlank": true,
            "title": "ci-runners Service Apdex SLO Analysis",
            "url": "/d/alerts-service_slo_apdex?${__url_time_range}&${__all_variables}&var-type=ci-runners&var-stage=$stage"
          }
        ]
      },
      "percentage": false,
      "pointradius": 5,
      "points": false,
      "renderer": "flot",
      "seriesOverrides": [
        {
          "alias": "6h Degradation SLO (5% of monthly error budget)",
          "color": "#FF4500",
          "dashLength": 4,
          "dashes": true,
          "legend": true,
          "lines": true,
          "linewidth": 2,
          "nullPointMode": "connected",
          "spaceLength": 10,
          "zindex": -2
        },
        {
          "alias": "1h Outage SLO (2% of monthly error budget)",
          "color": "#F2495C",
          "dashLength": 4,
          "dashes": true,
          "legend": true,
          "lines": true,
          "linewidth": 4,
          "nullPointMode": "connected",
          "spaceLength": 4,
          "zindex": -2
        },
        {
          "alias": "SLO",
          "color": "#FF4500",
          "dashLength": 4,
          "dashes": true,
          "legend": true,
          "lines": true,
          "linewidth": 4,
          "nullPointMode": "connected",
          "spaceLength": 4,
          "zindex": -2
        },
        {
          "alias": "ci-runners apdex",
          "color": "#E7D551",
          "zindex": 3
        },
        {
          "alias": "ci-runners apdex avg",
          "color": "#5794F2",
          "dashLength": 1,
          "fillBelowTo": "ci-runners apdex",
          "linewidth": 1,
          "spaceLength": 1,
          "zindex": -3
        },
        {
          "alias": "last week",
          "color": "#dddddd80",
          "dashLength": 4,
          "dashes": true,
          "fill": 0,
          "legend": true,
          "lines": true,
          "linewidth": 1,
          "nullPointMode": "connected",
          "spaceLength": 2,
          "zindex": -3
        }
      ],
      "spaceLength": 10,
      "stableId": "service-ci-runners-apdex",
      "stack": false,
      "steppedLine": false,
      "targets": [
        {
          "expr": "min_over_time(gitlab_service_apdex:ratio_5m{environment=\"$environment\",monitor=\"global\",stage=\"$stage\",tier=\"runners\",type=\"ci-runners\"}[$__interval])\n",
          "format": "time_series",
          "interval": "1m",
          "intervalFactor": 3,
          "legendFormat": "ci-runners apdex",
          "refId": "A"
        },
        {
          "expr": "(1 - 6 * (1 - avg(slo:min:events:gitlab_service_apdex:ratio{component=\"\",monitor=\"global\",tier=\"runners\",type=\"ci-runners\"})\n))\n",
          "format": "time_series",
          "interval": "5m",
          "intervalFactor": 3,
          "legendFormat": "6h Degradation SLO (5% of monthly error budget)",
          "refId": "B"
        },
        {
          "expr": "(1 - 14.4 * (1 - avg(slo:min:events:gitlab_service_apdex:ratio{component=\"\",monitor=\"global\",tier=\"runners\",type=\"ci-runners\"})\n))\n",
          "format": "time_series",
          "interval": "5m",
          "intervalFactor": 3,
          "legendFormat": "1h Outage SLO (2% of monthly error budget)",
          "refId": "C"
        },
        {
          "expr": "avg_over_time(gitlab_service_apdex:ratio_5m{environment=\"$environment\",monitor=\"global\",stage=\"$stage\",tier=\"runners\",type=\"ci-runners\"}[$__interval])\n",
          "format": "time_series",
          "interval": "1m",
          "intervalFactor": 3,
          "legendFormat": "ci-runners apdex avg",
          "refId": "D"
        },
        {
          "expr": "clamp_min(\n  gitlab_service_apdex:ratio_5m{environment=\"$environment\",monitor=\"global\",stage=\"$stage\",tier=\"runners\",type=\"ci-runners\"} offset 1w\n,\n  scalar(min((1 - 14.4 * (1 - avg(slo:min:events:gitlab_service_apdex:ratio{component=\"\",monitor=\"global\",tier=\"runners\",type=\"ci-runners\"})\n))\n))\n)\n",
          "format": "time_series",
          "interval": "1m",
          "intervalFactor": 3,
          "legendFormat": "last week",
          "refId": "E"
        }
      ],
      "title": "ci-runners Service Apdex",
      "tooltip": {
        "shared": true,
        "sort": 1,
        "value_type": "individual"
      },
      "type": "graph",
      "xaxis": {
        "mode": "time",
        "show": true
      },
      "yaxes": [
        {
          "format": "percentunit",
          "label": "Apdex %",
          "logBase": 1,
          "max": 1,
          "show": true
        },
        {
          "format": "short",
          "logBase": 1,
          "max": 1,
          "min": 0,
          "show": false
        }
      ]
    },
    {
      "fieldConfig": {
        "defaults": {
          "displayName": "Status",
          "mappings": [
            {
              "id": 0,
              "options": {
                "0": {
                  "color": "black",
                  "index": 0,
                  "text": "Healthy"
                },
                "1": {
                  "color": "orange",
                  "index": 1,
                  "text": "Warning 🔥"
                },
                "10": {
                  "color": "orange",
                  "index": 10,
                  "text": "Warning 🔥🥵"
                },
                "11": {
                  "color": "red",
                  "index": 11,
                  "text": "Degraded 🔥🥵"
                },
                "12": {
                  "color": "red",
                  "index": 12,
                  "text": "Degraded 🥵"
                },
                "13": {
                  "color": "red",
                  "index": 13,
                  "text": "Degraded 🔥🥵"
                },
                "14": {
                  "color": "red",
                  "index": 14,
                  "text": "Degraded 🔥🥵"
                },
                "15": {
                  "color": "red",
                  "index": 15,
                  "text": "Degraded 🔥🥵"
                },
                "2": {
                  "color": "orange",
                  "index": 2,
                  "text": "Warning 🔥"
                },
                "3": {
                  "color": "red",
                  "index": 3,
                  "text": "Degraded 🔥"
                },
                "4": {
                  "color": "orange",
                  "index": 4,
                  "text": "Warning 🥵"
                },
                "5": {
                  "color": "orange",
                  "index": 5,
                  "text": "Warning 🔥🥵"
                },
                "6": {
                  "color": "orange",
                  "index": 6,
                  "text": "Warning 🔥🥵"
                },
                "7": {
                  "color": "red",
                  "index": 7,
                  "text": "Degraded 🔥🥵"
                },
                "8": {
                  "color": "orange",
                  "index": 8,
                  "text": "Warning 🥵"
                },
                "9": {
                  "color": "orange",
                  "index": 9,
                  "text": "Warning 🔥🥵"
                }
              },
              "type": "value"
            }
          ],
          "thresholds": {
            "mode": "absolute",
            "steps": [
              {
                "color": "black",
                "value": 0
              },
              {
                "color": "orange",
                "value": 1
              },
              {
                "color": "orange",
                "value": 2
              },
              {
                "color": "red",
                "value": 3
              },
              {
                "color": "orange",
                "value": 4
              },
              {
                "color": "orange",
                "value": 5
              },
              {
                "color": "orange",
                "value": 6
              },
              {
                "color": "red",
                "value": 7
              },
              {
                "color": "orange",
                "value": 8
              },
              {
                "color": "orange",
                "value": 9
              },
              {
                "color": "orange",
                "value": 10
              },
              {
                "color": "red",
                "value": 11
              },
              {
                "color": "red",
                "value": 12
              },
              {
                "color": "red",
                "value": 13
              },
              {
                "color": "red",
                "value": 14
              },
              {
                "color": "red",
                "value": 15
              }
            ]
          },
          "unit": "none"
        }
      },
      "gridPos": {
        "h": 1,
        "w": 6,
        "x": 0,
        "y": 7
      },
      "id": 4,
      "options": {
        "colorMode": "background",
        "graphMode": "none",
        "justifyMode": "auto",
        "orientation": "vertical",
        "reduceOptions": {
          "calcs": [
            "lastNotNull"
          ],
          "fields": "",
          "values": false
        },
        "textMode": "auto"
      },
      "pluginVersion": "7",
      "targets": [
        {
          "expr": "sum(\n  label_replace(\n    vector(0) and on() (gitlab_service_apdex:ratio_1h{environment=\"$environment\",monitor=\"global\",stage=\"$stage\",tier=\"runners\",type=\"ci-runners\"}),\n    \"period\", \"na\", \"\", \"\"\n  )\n  or\n  label_replace(\n    vector(1) and on () (gitlab_service_apdex:ratio_5m{environment=\"$environment\",monitor=\"global\",stage=\"$stage\",tier=\"runners\",type=\"ci-runners\"} < on(tier, type) group_left() (1 - (14.4 * (1 - slo:min:events:gitlab_service_apdex:ratio{component=\"\",monitor=\"global\",tier=\"runners\",type=\"ci-runners\"})))),\n    \"period\", \"5m\", \"\", \"\"\n  )\n  or\n  label_replace(\n    vector(2) and on () (gitlab_service_apdex:ratio_1h{environment=\"$environment\",monitor=\"global\",stage=\"$stage\",tier=\"runners\",type=\"ci-runners\"} < on(tier, type) group_left() (1 - (14.4 * (1 - slo:min:events:gitlab_service_apdex:ratio{component=\"\",monitor=\"global\",tier=\"runners\",type=\"ci-runners\"})))),\n    \"period\", \"1h\", \"\", \"\"\n  )\n  or\n  label_replace(\n    vector(4) and on () (gitlab_service_apdex:ratio_30m{environment=\"$environment\",monitor=\"global\",stage=\"$stage\",tier=\"runners\",type=\"ci-runners\"} < on(tier, type) group_left() (1 - (6 * (1 - slo:min:events:gitlab_service_apdex:ratio{component=\"\",monitor=\"global\",tier=\"runners\",type=\"ci-runners\"})))),\n    \"period\", \"30m\", \"\", \"\"\n  )\n  or\n  label_replace(\n    vector(8) and on () (gitlab_service_apdex:ratio_6h{environment=\"$environment\",monitor=\"global\",stage=\"$stage\",tier=\"runners\",type=\"ci-runners\"} < on(tier, type) group_left() (1 - (6 * (1 - slo:min:events:gitlab_service_apdex:ratio{component=\"\",monitor=\"global\",tier=\"runners\",type=\"ci-runners\"})))),\n    \"period\", \"6h\", \"\", \"\"\n  )\n)\n",
          "format": "time_series",
          "instant": true,
          "interval": "1m",
          "intervalFactor": 3,
          "legendFormat": "ci-runners Service | Latency/Apdex",
          "refId": "A"
        }
      ],
      "title": "",
      "transparent": false,
      "type": "stat"
    },
    {
      "bars": false,
      "dashLength": 10,
      "dashes": false,
      "datasource": "$PROMETHEUS_DS",
      "decimals": 2,
      "description": "Error rates are a measure of unhandled service exceptions per second. Client errors are excluded when possible. Lower is better",
      "fill": 0,
      "fillGradient": 0,
      "gridPos": {
        "h": 6,
        "w": 6,
        "x": 6,
        "y": 1
      },
      "id": 5,
      "legend": {
        "alignAsTable": true,
        "avg": true,
        "current": true,
        "hideEmpty": true,
        "max": true,
        "min": true,
        "rightSide": false,
        "show": true,
        "total": false,
        "values": true
      },
      "lines": true,
      "linewidth": 2,
      "nullPointMode": "null",
      "options": {
        "dataLinks": [
          {
            "targetBlank": true,
            "title": "ci-runners Service Error-Rate SLO Analysis",
            "url": "/d/alerts-service_slo_error?${__url_time_range}&${__all_variables}&var-type=ci-runners&var-stage=$stage"
          }
        ]
      },
      "percentage": false,
      "pointradius": 5,
      "points": false,
      "renderer": "flot",
      "seriesOverrides": [
        {
          "alias": "6h Degradation SLO (5% of monthly error budget)",
          "color": "#FF4500",
          "dashLength": 4,
          "dashes": true,
          "legend": true,
          "lines": true,
          "linewidth": 2,
          "nullPointMode": "connected",
          "spaceLength": 10,
          "zindex": -2
        },
        {
          "alias": "1h Outage SLO (2% of monthly error budget)",
          "color": "#F2495C",
          "dashLength": 4,
          "dashes": true,
          "legend": true,
          "lines": true,
          "linewidth": 4,
          "nullPointMode": "connected",
          "spaceLength": 4,
          "zindex": -2
        },
        {
          "alias": "ci-runners error ratio",
          "color": "#E7D551",
          "fillBelowTo": "ci-runners error ratio avg",
          "zindex": 3
        },
        {
          "alias": "ci-runners error ratio avg",
          "color": "#5794F2",
          "dashLength": 1,
          "fillGradient": 10,
          "linewidth": 1,
          "spaceLength": 1,
          "zindex": -3
        },
        {
          "alias": "last week",
          "color": "#dddddd80",
          "dashLength": 4,
          "dashes": true,
          "fill": 0,
          "legend": true,
          "lines": true,
          "linewidth": 1,
          "nullPointMode": "connected",
          "spaceLength": 2,
          "zindex": -3
        }
      ],
      "spaceLength": 10,
      "stableId": "service-ci-runners-error-rate",
      "stack": false,
      "steppedLine": false,
      "targets": [
        {
          "expr": "clamp_max(\n  max_over_time(gitlab_service_errors:ratio_5m{environment=\"$environment\",monitor=\"global\",stage=\"$stage\",tier=\"runners\",type=\"ci-runners\"}[$__interval])\n,\n  1\n)\n",
          "format": "time_series",
          "interval": "1m",
          "intervalFactor": 3,
          "legendFormat": "ci-runners error ratio",
          "refId": "A"
        },
        {
          "expr": "(6 * avg(slo:max:events:gitlab_service_errors:ratio{component=\"\",monitor=\"global\",tier=\"runners\",type=\"ci-runners\"})\n)\n",
          "format": "time_series",
          "interval": "5m",
          "intervalFactor": 3,
          "legendFormat": "6h Degradation SLO (5% of monthly error budget)",
          "refId": "B"
        },
        {
          "expr": "(14.4 * avg(slo:max:events:gitlab_service_errors:ratio{component=\"\",monitor=\"global\",tier=\"runners\",type=\"ci-runners\"})\n)\n",
          "format": "time_series",
          "interval": "5m",
          "intervalFactor": 3,
          "legendFormat": "1h Outage SLO (2% of monthly error budget)",
          "refId": "C"
        },
        {
          "expr": "clamp_max(\n  avg_over_time(gitlab_service_errors:ratio_5m{environment=\"$environment\",monitor=\"global\",stage=\"$stage\",tier=\"runners\",type=\"ci-runners\"}[$__interval])\n,\n  1\n)\n",
          "format": "time_series",
          "interval": "1m",
          "intervalFactor": 3,
          "legendFormat": "ci-runners error ratio avg",
          "refId": "D"
        },
        {
          "expr": "clamp_max(\n  gitlab_service_errors:ratio_5m{environment=\"$environment\",monitor=\"global\",stage=\"$stage\",tier=\"runners\",type=\"ci-runners\"} offset 1w\n,\n  scalar(max((14.4 * avg(slo:max:events:gitlab_service_errors:ratio{component=\"\",monitor=\"global\",tier=\"runners\",type=\"ci-runners\"})\n)\n))\n)\n",
          "format": "time_series",
          "interval": "1m",
          "intervalFactor": 3,
          "legendFormat": "last week",
          "refId": "E"
        }
      ],
      "title": "ci-runners Service Error Ratio",
      "tooltip": {
        "shared": true,
        "sort": 2,
        "value_type": "individual"
      },
      "type": "graph",
      "xaxis": {
        "mode": "time",
        "show": true
      },
      "yaxes": [
        {
          "format": "percentunit",
          "label": "Error %",
          "logBase": 1,
          "min": 0,
          "show": true
        },
        {
          "format": "short",
          "logBase": 1,
          "max": 1,
          "min": 0,
          "show": false
        }
      ]
    },
    {
      "fieldConfig": {
        "defaults": {
          "displayName": "Status",
          "mappings": [
            {
              "id": 0,
              "options": {
                "0": {
                  "color": "black",
                  "index": 0,
                  "text": "Healthy"
                },
                "1": {
                  "color": "orange",
                  "index": 1,
                  "text": "Warning 🔥"
                },
                "10": {
                  "color": "orange",
                  "index": 10,
                  "text": "Warning 🔥🥵"
                },
                "11": {
                  "color": "red",
                  "index": 11,
                  "text": "Degraded 🔥🥵"
                },
                "12": {
                  "color": "red",
                  "index": 12,
                  "text": "Degraded 🥵"
                },
                "13": {
                  "color": "red",
                  "index": 13,
                  "text": "Degraded 🔥🥵"
                },
                "14": {
                  "color": "red",
                  "index": 14,
                  "text": "Degraded 🔥🥵"
                },
                "15": {
                  "color": "red",
                  "index": 15,
                  "text": "Degraded 🔥🥵"
                },
                "2": {
                  "color": "orange",
                  "index": 2,
                  "text": "Warning 🔥"
                },
                "3": {
                  "color": "red",
                  "index": 3,
                  "text": "Degraded 🔥"
                },
                "4": {
                  "color": "orange",
                  "index": 4,
                  "text": "Warning 🥵"
                },
                "5": {
                  "color": "orange",
                  "index": 5,
                  "text": "Warning 🔥🥵"
                },
                "6": {
                  "color": "orange",
                  "index": 6,
                  "text": "Warning 🔥🥵"
                },
                "7": {
                  "color": "red",
                  "index": 7,
                  "text": "Degraded 🔥🥵"
                },
                "8": {
                  "color": "orange",
                  "index": 8,
                  "text": "Warning 🥵"
                },
                "9": {
                  "color": "orange",
                  "index": 9,
                  "text": "Warning 🔥🥵"
                }
              },
              "type": "value"
            }
          ],
          "thresholds": {
            "mode": "absolute",
            "steps": [
              {
                "color": "black",
                "value": 0
              },
              {
                "color": "orange",
                "value": 1
              },
              {
                "color": "orange",
                "value": 2
              },
              {
                "color": "red",
                "value": 3
              },
              {
                "color": "orange",
                "value": 4
              },
              {
                "color": "orange",
                "value": 5
              },
              {
                "color": "orange",
                "value": 6
              },
              {
                "color": "red",
                "value": 7
              },
              {
                "color": "orange",
                "value": 8
              },
              {
                "color": "orange",
                "value": 9
              },
              {
                "color": "orange",
                "value": 10
              },
              {
                "color": "red",
                "value": 11
              },
              {
                "color": "red",
                "value": 12
              },
              {
                "color": "red",
                "value": 13
              },
              {
                "color": "red",
                "value": 14
              },
              {
                "color": "red",
                "value": 15
              }
            ]
          },
          "unit": "none"
        }
      },
      "gridPos": {
        "h": 1,
        "w": 6,
        "x": 6,
        "y": 7
      },
      "id": 6,
      "options": {
        "colorMode": "background",
        "graphMode": "none",
        "justifyMode": "auto",
        "orientation": "vertical",
        "reduceOptions": {
          "calcs": [
            "lastNotNull"
          ],
          "fields": "",
          "values": false
        },
        "textMode": "auto"
      },
      "pluginVersion": "7",
      "targets": [
        {
          "expr": "sum (\n  label_replace(\n    vector(0) and on() (gitlab_service_errors:ratio_1h{environment=\"$environment\",monitor=\"global\",stage=\"$stage\",tier=\"runners\",type=\"ci-runners\"}),\n    \"period\", \"na\", \"\", \"\"\n  )\n  or\n  label_replace(\n    vector(1) and on() (gitlab_service_errors:ratio_5m{environment=\"$environment\",monitor=\"global\",stage=\"$stage\",tier=\"runners\",type=\"ci-runners\"} > on(tier, type) group_left() (14.4 * slo:max:events:gitlab_service_errors:ratio{component=\"\",monitor=\"global\",tier=\"runners\",type=\"ci-runners\"})),\n    \"period\", \"5m\", \"\", \"\"\n  )\n  or\n  label_replace(\n    vector(2) and on() (gitlab_service_errors:ratio_1h{environment=\"$environment\",monitor=\"global\",stage=\"$stage\",tier=\"runners\",type=\"ci-runners\"} > on(tier, type) group_left() (14.4 * slo:max:events:gitlab_service_errors:ratio{component=\"\",monitor=\"global\",tier=\"runners\",type=\"ci-runners\"})),\n    \"period\", \"1h\", \"\", \"\"\n  )\n  or\n  label_replace(\n    vector(4) and on() (gitlab_service_errors:ratio_30m{environment=\"$environment\",monitor=\"global\",stage=\"$stage\",tier=\"runners\",type=\"ci-runners\"} > on(tier, type) group_left() (6 * slo:max:events:gitlab_service_errors:ratio{component=\"\",monitor=\"global\",tier=\"runners\",type=\"ci-runners\"})),\n    \"period\", \"30m\", \"\", \"\"\n  )\n  or\n  label_replace(\n    vector(8) and on() (gitlab_service_errors:ratio_6h{environment=\"$environment\",monitor=\"global\",stage=\"$stage\",tier=\"runners\",type=\"ci-runners\"} > on(tier, type) group_left() (6 * slo:max:events:gitlab_service_errors:ratio{component=\"\",monitor=\"global\",tier=\"runners\",type=\"ci-runners\"})),\n    \"period\", \"6h\", \"\", \"\"\n  )\n)\n",
          "format": "time_series",
          "instant": true,
          "interval": "1m",
          "intervalFactor": 3,
          "legendFormat": "ci-runners Service | Errors",
          "refId": "A"
        }
      ],
      "title": "",
      "transparent": false,
      "type": "stat"
    },
    {
      "bars": false,
      "dashLength": 10,
      "dashes": false,
      "datasource": "$PROMETHEUS_DS",
      "decimals": 2,
      "description": "The operation rate is the sum total of all requests being handle for all components within this service. Note that a single user request can lead to requests to multiple components. Higher is busier.",
      "fill": 0,
      "fillGradient": 0,
      "gridPos": {
        "h": 7,
        "w": 6,
        "x": 12,
        "y": 1
      },
      "id": 7,
      "legend": {
        "alignAsTable": true,
        "avg": true,
        "current": true,
        "hideEmpty": true,
        "max": true,
        "min": true,
        "rightSide": false,
        "show": true,
        "total": false,
        "values": true
      },
      "lines": true,
      "linewidth": 2,
      "nullPointMode": "null",
      "percentage": false,
      "pointradius": 5,
      "points": false,
      "renderer": "flot",
      "seriesOverrides": [
        {
          "alias": "ci-runners RPS",
          "color": "#E7D551",
          "zindex": 3
        },
        {
          "alias": "last week",
          "color": "#dddddd80",
          "dashLength": 4,
          "dashes": true,
          "fill": 0,
          "legend": true,
          "lines": true,
          "linewidth": 1,
          "nullPointMode": "connected",
          "spaceLength": 2,
          "zindex": -3
        },
        {
          "alias": "upper normal",
          "color": "#73BF69",
          "dashLength": 8,
          "dashes": true,
          "fillBelowTo": "lower normal",
          "legend": false,
          "lines": false,
          "linewidth": 1,
          "nullPointMode": "connected",
          "spaceLength": 8,
          "zindex": -3
        },
        {
          "alias": "lower normal",
          "color": "#73BF69",
          "dashLength": 8,
          "dashes": true,
          "legend": false,
          "lines": false,
          "linewidth": 1,
          "nullPointMode": "connected",
          "spaceLength": 8,
          "zindex": -3
        }
      ],
      "spaceLength": 10,
      "stableId": "service-ci-runners-ops-rate",
      "stack": false,
      "steppedLine": false,
      "targets": [
        {
          "expr": "avg_over_time(gitlab_service_ops:rate_5m{environment=\"$environment\",monitor=\"global\",stage=\"$stage\",tier=\"runners\",type=\"ci-runners\"}[$__interval])\n",
          "format": "time_series",
          "interval": "1m",
          "intervalFactor": 3,
          "legendFormat": "ci-runners RPS",
          "refId": "A"
        },
        {
          "expr": "gitlab_service_ops:rate_5m{environment=\"$environment\",monitor=\"global\",stage=\"$stage\",tier=\"runners\",type=\"ci-runners\"} offset 1w\n",
          "format": "time_series",
          "interval": "1m",
          "intervalFactor": 3,
          "legendFormat": "last week",
          "refId": "B"
        },
        {
          "expr": "clamp_min(\n  avg by (type) (\n    gitlab_service_ops:rate:prediction{environment=\"$environment\",monitor=\"global\",stage=\"$stage\",tier=\"runners\",type=\"ci-runners\"}\n    + (1) *\n    gitlab_service_ops:rate:stddev_over_time_1w{environment=\"$environment\",monitor=\"global\",stage=\"$stage\",tier=\"runners\",type=\"ci-runners\"}\n  ),\n  0\n)\n",
          "format": "time_series",
          "interval": "1m",
          "intervalFactor": 3,
          "legendFormat": "upper normal",
          "refId": "C"
        },
        {
          "expr": "clamp_min(\n  avg by (type) (\n    gitlab_service_ops:rate:prediction{environment=\"$environment\",monitor=\"global\",stage=\"$stage\",tier=\"runners\",type=\"ci-runners\"}\n    + (-1) *\n    gitlab_service_ops:rate:stddev_over_time_1w{environment=\"$environment\",monitor=\"global\",stage=\"$stage\",tier=\"runners\",type=\"ci-runners\"}\n  ),\n  0\n)\n",
          "format": "time_series",
          "interval": "1m",
          "intervalFactor": 3,
          "legendFormat": "lower normal",
          "refId": "D"
        }
      ],
      "title": "ci-runners Service RPS - Requests per Second",
      "tooltip": {
        "shared": true,
        "sort": 2,
        "value_type": "individual"
      },
      "type": "graph",
      "xaxis": {
        "mode": "time",
        "show": true
      },
      "yaxes": [
        {
          "format": "short",
          "label": "Operations per Second",
          "logBase": 1,
          "min": 0,
          "show": true
        },
        {
          "format": "short",
          "logBase": 1,
          "max": 1,
          "min": 0,
          "show": false
        }
      ]
    },
    {
      "bars": false,
      "dashLength": 10,
      "dashes": false,
      "datasource": "$PROMETHEUS_DS",
      "decimals": 2,
      "description": "Saturation is a measure of what ratio of a finite resource is currently being utilized. Lower is better.",
      "fill": 0,
      "fillGradient": 0,
      "gridPos": {
        "h": 7,
        "w": 6,
        "x": 18,
        "y": 1
      },
      "id": 8,
      "legend": {
        "alignAsTable": true,
        "avg": true,
        "current": true,
        "hideEmpty": true,
        "max": true,
        "min": true,
        "rightSide": false,
        "show": true,
        "total": false,
        "values": true
      },
      "lines": true,
      "linewidth": 2,
      "nullPointMode": "null",
      "percentage": false,
      "pointradius": 5,
      "points": false,
      "renderer": "flot",
      "spaceLength": 10,
      "stableId": "service-utilization",
      "stack": false,
      "steppedLine": false,
      "targets": [
        {
          "expr": "max(\n  max_over_time(\n    gitlab_component_saturation:ratio{environment=\"$environment\",stage=\"$stage\",tier=\"runners\",type=\"ci-runners\"}[$__interval]\n  )\n) by (component)\n",
          "format": "time_series",
          "interval": "1m",
          "intervalFactor": 3,
          "legendFormat": "{{ component }} component",
          "refId": "A"
        }
      ],
      "title": "Saturation",
      "tooltip": {
        "shared": true,
        "sort": 2,
        "value_type": "individual"
      },
      "type": "graph",
      "xaxis": {
        "mode": "time",
        "show": true
      },
      "yaxes": [
        {
          "format": "percentunit",
          "label": "Saturation %",
          "logBase": 1,
          "max": 1,
          "show": true
        },
        {
          "format": "short",
          "logBase": 1,
          "max": 1,
          "min": 0,
          "show": false
        }
      ]
    },
    {
      "aliasColors": {
      },
      "bars": false,
      "dashLength": 10,
      "dashes": false,
      "datasource": "$PROMETHEUS_DS",
      "decimals": 0,
      "description": "",
      "fill": 1,
      "fillGradient": 0,
      "gridPos": {
        "h": 7,
        "w": 4.8,
        "x": 0,
        "y": 1000
      },
      "id": 9,
      "legend": {
        "alignAsTable": true,
        "avg": true,
        "current": true,
        "hideEmpty": true,
        "max": true,
        "min": true,
        "rightSide": false,
        "show": true,
        "sideWidth": null,
        "total": false,
        "values": true
      },
      "lines": true,
      "linewidth": 2,
      "links": [

      ],
      "nullPointMode": "null",
      "percentage": false,
      "pointradius": 5,
      "points": false,
      "renderer": "flot",
      "repeat": null,
      "seriesOverrides": [

      ],
      "spaceLength": 10,
      "stack": true,
      "steppedLine": false,
      "targets": [
        {
          "expr": "sum by(shard) (gitlab_runner_jobs{environment=~\"$environment\",stage=~\"$stage\",instance=~\"${runner_manager:pipe}\"})",
          "format": "time_series",
          "interval": "1m",
          "intervalFactor": 3,
          "legendFormat": "{{ shard }}",
          "refId": "A"
        }
      ],
      "thresholds": [

      ],
      "timeFrom": null,
      "timeShift": null,
      "title": "Jobs running on GitLab Inc. runners (by shard)",
      "tooltip": {
        "shared": true,
        "sort": 2,
        "value_type": "individual"
      },
      "type": "graph",
      "xaxis": {
        "buckets": null,
        "mode": "time",
        "name": null,
        "show": true,
        "values": [

        ]
      },
      "yaxes": [
        {
          "format": "short",
          "label": "",
          "logBase": 1,
          "max": null,
          "min": 0,
          "show": true
        },
        {
          "format": "short",
          "label": null,
          "logBase": 1,
          "max": 1,
          "min": 0,
          "show": false
        }
      ]
    },
    {
      "aliasColors": {
      },
      "bars": true,
      "dashLength": 10,
      "dashes": false,
      "datasource": "$PROMETHEUS_DS",
      "decimals": 0,
      "description": "",
      "fill": 1,
      "fillGradient": 0,
      "gridPos": {
        "h": 7,
        "w": 4.8,
        "x": 4.8,
        "y": 1000
      },
      "id": 10,
      "legend": {
        "alignAsTable": true,
        "avg": true,
        "current": true,
        "hideEmpty": true,
        "max": true,
        "min": true,
        "rightSide": false,
        "show": true,
        "sideWidth": null,
        "total": false,
        "values": true
      },
      "lines": false,
      "linewidth": 2,
      "links": [

      ],
      "nullPointMode": "null",
      "percentage": false,
      "pointradius": 5,
      "points": false,
      "renderer": "flot",
      "repeat": null,
      "seriesOverrides": [
        {
          "alias": "avg",
          "bars": false,
          "color": "#ff0000ff",
          "fill": 0,
          "lines": true,
          "linewidth": 2,
          "stack": false,
          "zindex": 3
        }
      ],
      "spaceLength": 10,
      "stack": true,
      "steppedLine": false,
      "targets": [
        {
          "expr": "sum by(shard) (\n  increase(gitlab_runner_jobs_total{environment=~\"$environment\",stage=~\"$stage\",instance=~\"${runner_manager:pipe}\"}[$__interval])\n)\n",
          "format": "time_series",
          "interval": "1m",
          "intervalFactor": 3,
          "legendFormat": "{{ shard }}",
          "refId": "A"
        },
        {
          "expr": "avg (\n  increase(gitlab_runner_jobs_total{environment=~\"$environment\",stage=~\"$stage\",instance=~\"${runner_manager:pipe}\"}[$__interval])\n)\n",
          "format": "time_series",
          "interval": "",
          "intervalFactor": 10,
          "legendFormat": "avg"
        }
      ],
      "thresholds": [

      ],
      "timeFrom": null,
      "timeShift": null,
      "title": "Jobs started on runners (by shard)",
      "tooltip": {
        "shared": true,
        "sort": 2,
        "value_type": "individual"
      },
      "type": "graph",
      "xaxis": {
        "buckets": null,
        "mode": "time",
        "name": null,
        "show": true,
        "values": [

        ]
      },
      "yaxes": [
        {
          "format": "short",
          "label": "",
          "logBase": 1,
          "max": null,
          "min": 0,
          "show": true
        },
        {
          "format": "short",
          "label": null,
          "logBase": 1,
          "max": 1,
          "min": 0,
          "show": false
        }
      ]
    },
    {
      "cards": {
        "cardPadding": 1,
        "cardRound": 2
      },
      "color": {
        "cardColor": "#FA6400",
        "colorScale": "sqrt",
        "exponent": 0.5,
        "mode": "opacity"
      },
      "dataFormat": "tsbuckets",
      "datasource": "$PROMETHEUS_DS",
      "gridPos": {
        "h": 7,
        "w": 4.8,
        "x": 9.6,
        "y": 1000
      },
      "heatmap": {
      },
      "hideZeroBuckets": false,
      "highlightCards": true,
      "id": 11,
      "legend": {
        "show": false
      },
      "targets": [
        {
          "dsType": "influxdb",
          "expr": "sum by (le) (\n  rate(job_queue_duration_seconds_bucket{environment=~\"$environment\", stage=~\"$stage\", jobs_running_for_project=~\"$jobs_running_for_project\"}[$__interval])\n)\n",
          "format": "heatmap",
          "groupBy": [
            {
              "params": [
                "$__interval"
              ],
              "type": "time"
            },
            {
              "params": [
                "null"
              ],
              "type": "fill"
            }
          ],
          "interval": "$__interval",
          "intervalFactor": 1,
          "legendFormat": "{{le}}",
          "orderByTime": "ASC",
          "refId": "A",
          "select": [
            [
              {
                "params": [
                  "value"
                ],
                "type": "field"
              },
              {
                "params": [

                ],
                "type": "mean"
              }
            ]
          ]
        }
      ],
      "title": "Pending job queue duration histogram",
      "tooltip": {
        "show": true,
        "showHistogram": true
      },
      "tooltipDecimals": 3,
      "type": "heatmap",
      "xAxis": {
        "show": true
      },
      "xBucketNumber": null,
      "xBucketSize": null,
      "yAxis": {
        "decimals": 2,
        "format": "s",
        "show": true,
        "splitFactor": null
      },
      "yBucketBound": "auto"
    },
    {
      "aliasColors": {
      },
      "bars": false,
      "dashLength": 10,
      "dashes": false,
      "datasource": "$PROMETHEUS_DS",
      "decimals": 0,
      "description": "",
      "fill": 0,
      "fillGradient": 0,
      "gridPos": {
        "h": 7,
        "w": 4.8,
        "x": 14.399999999999999,
        "y": 1000
      },
      "id": 12,
      "legend": {
        "alignAsTable": true,
        "avg": true,
        "current": true,
        "hideEmpty": true,
        "max": true,
        "min": true,
        "rightSide": false,
        "show": true,
        "sideWidth": null,
        "total": false,
        "values": true
      },
      "lines": true,
      "linewidth": 2,
      "links": [

      ],
      "nullPointMode": "null",
      "percentage": false,
      "pointradius": 5,
      "points": false,
      "renderer": "flot",
      "repeat": null,
      "seriesOverrides": [

      ],
      "spaceLength": 10,
      "stack": false,
      "steppedLine": false,
      "targets": [
        {
          "expr": "histogram_quantile(\n  0.99,\n  sum by (le, runner_type) (\n    increase(gitlab_ci_queue_size_total_bucket{environment=~\"$environment\", stage=~\"$stage\"}[$__interval])\n  )\n)\n",
          "format": "time_series",
          "interval": "1m",
          "intervalFactor": 3,
          "legendFormat": "{{runner_type}}",
          "refId": "A"
        }
      ],
      "thresholds": [

      ],
      "timeFrom": null,
      "timeShift": null,
      "title": "Pending jobs queue size",
      "tooltip": {
        "shared": true,
        "sort": 2,
        "value_type": "individual"
      },
      "type": "graph",
      "xaxis": {
        "buckets": null,
        "mode": "time",
        "name": null,
        "show": true,
        "values": [

        ]
      },
      "yaxes": [
        {
          "format": "short",
          "label": "",
          "logBase": 1,
          "max": null,
          "min": 0,
          "show": true
        },
        {
          "format": "short",
          "label": null,
          "logBase": 1,
          "max": 1,
          "min": 0,
          "show": false
        }
      ]
    },
    {
      "content": "In short: problems with autoscaling will reduce (even totally) the capacity of our Runners.\n\n**It's recommended to review the graphs after limiting the shard variable to only\nthe part of Runners that we want to analyse.** Otherwise the number of different lines\nmay be overwhelming. Please also remember that **different shards have different autosacling\nsettings**, where the `shared` one is the most outstanding at it creates a VM dedicated for\nevery job and removes it just after the job is finished.\n\nKnown problem indicators:\n- high number of VMs in `creating` state for a longer period,\n- unnatural shape of the `creating` state VMs line,\n- `idle` VMs value constantly near `0`,\n- VM operations going up-and-down in a sinewave-like shape,\n- VMs creation timing increased above the usual average,\n- exceeding GCP quotas.\n\nAutoscaling problems are usually caused by three possible reasons:\n- Exceeding GCP quotas (especially the API ones). For that go to the GCP console\n  to projects where autoscaled VMs are created for the shard (note that we're currently\n  spliting shards between multiple projects **so this needs to be checked in all of them**)\n  and check if we're not exceeding the API quotas. Especially the `read requests` and\n  `operation read requests`.\n- Bug in configuration of autoscaling. Wrong configuration may effect with Docker Machine not\n  being able to create the VM or VM being not accessible after it was created. Double check\n  if there were any changes made in Runner Manager's `config.toml` file, in the `[docker.machine]`\n  section.\n- Docker Machine bug. Very rare, as we've probably already caught all of them, but to be sure\n  check if there was no updates of used Docker Machine version just before the incideent happened.\n",
      "datasource": null,
      "gridPos": {
        "h": 7,
        "w": 4.8,
        "x": 19.2,
        "y": 1000
      },
      "id": 13,
      "mode": "markdown",
      "title": "autoscaling caused incident notes",
      "type": "text"
    },
    {
      "aliasColors": {
      },
      "bars": false,
      "dashLength": 10,
      "dashes": false,
      "datasource": "$PROMETHEUS_DS",
      "decimals": 0,
      "description": "",
      "fill": 0,
      "fillGradient": 0,
      "gridPos": {
        "h": 8,
        "w": 8,
        "x": 0,
        "y": 3000
      },
      "id": 14,
      "legend": {
        "alignAsTable": true,
        "avg": true,
        "current": true,
        "hideEmpty": true,
        "max": true,
        "min": true,
        "rightSide": false,
        "show": true,
        "sideWidth": null,
        "total": false,
        "values": true
      },
      "lines": true,
      "linewidth": 2,
      "links": [

      ],
      "nullPointMode": "null",
      "percentage": false,
      "pointradius": 5,
      "points": false,
      "renderer": "flot",
      "repeat": null,
      "seriesOverrides": [

      ],
      "spaceLength": 10,
      "stack": false,
      "steppedLine": false,
      "targets": [
        {
          "expr": "sum by(shard, state) (\n  gitlab_runner_autoscaling_machine_states{environment=~\"$environment\", stage=~\"$stage\", executor=\"docker+machine\", instance=~\"${runner_manager:pipe}\"}\n)\n",
          "format": "time_series",
          "interval": "1m",
          "intervalFactor": 3,
          "legendFormat": "{{shard}}: {{state}}",
          "refId": "A"
        }
      ],
      "thresholds": [

      ],
      "timeFrom": null,
      "timeShift": null,
      "title": "Autoscaled VMs states",
      "tooltip": {
        "shared": true,
        "sort": 2,
        "value_type": "individual"
      },
      "type": "graph",
      "xaxis": {
        "buckets": null,
        "mode": "time",
        "name": null,
        "show": true,
        "values": [

        ]
      },
      "yaxes": [
        {
          "format": "short",
          "label": "",
          "logBase": 1,
          "max": null,
          "min": 0,
          "show": true
        },
        {
          "format": "short",
          "label": null,
          "logBase": 1,
          "max": 1,
          "min": 0,
          "show": false
        }
      ]
    },
    {
      "aliasColors": {
      },
      "bars": false,
      "dashLength": 10,
      "dashes": false,
      "datasource": "$PROMETHEUS_DS",
      "decimals": 0,
      "description": "",
      "fill": 1,
      "fillGradient": 0,
      "gridPos": {
        "h": 8,
        "w": 8,
        "x": 8,
        "y": 3000
      },
      "id": 15,
      "legend": {
        "alignAsTable": true,
        "avg": true,
        "current": true,
        "hideEmpty": true,
        "max": true,
        "min": true,
        "rightSide": false,
        "show": true,
        "sideWidth": null,
        "total": false,
        "values": true
      },
      "lines": true,
      "linewidth": 2,
      "links": [

      ],
      "nullPointMode": "null",
      "percentage": false,
      "pointradius": 5,
      "points": false,
      "renderer": "flot",
      "repeat": null,
      "seriesOverrides": [

      ],
      "spaceLength": 10,
      "stack": true,
      "steppedLine": false,
      "targets": [
        {
          "expr": "sum by (shard, action) (\n  increase(gitlab_runner_autoscaling_actions_total{environment=~\"$environment\", stage=~\"$stage\", executor=\"docker+machine\", instance=~\"${runner_manager:pipe}\"}[$__interval])\n)\n",
          "format": "time_series",
          "interval": "1m",
          "intervalFactor": 3,
          "legendFormat": "{{shard}}: {{action}}",
          "refId": "A"
        }
      ],
      "thresholds": [

      ],
      "timeFrom": null,
      "timeShift": null,
      "title": "Autoscaled VM operations rate",
      "tooltip": {
        "shared": true,
        "sort": 2,
        "value_type": "individual"
      },
      "type": "graph",
      "xaxis": {
        "buckets": null,
        "mode": "time",
        "name": null,
        "show": true,
        "values": [

        ]
      },
      "yaxes": [
        {
          "format": "ops",
          "label": "",
          "logBase": 1,
          "max": null,
          "min": 0,
          "show": true
        },
        {
          "format": "short",
          "label": null,
          "logBase": 1,
          "max": 1,
          "min": 0,
          "show": false
        }
      ]
    },
    {
      "cards": {
        "cardPadding": 1,
        "cardRound": 2
      },
      "color": {
        "cardColor": "#96D98D",
        "colorScale": "sqrt",
        "exponent": 0.25,
        "mode": "opacity"
      },
      "dataFormat": "tsbuckets",
      "datasource": "$PROMETHEUS_DS",
      "gridPos": {
        "h": 8,
        "w": 8,
        "x": 16,
        "y": 3000
      },
      "heatmap": {
      },
      "hideZeroBuckets": false,
      "highlightCards": true,
      "id": 16,
      "legend": {
        "show": false
      },
      "targets": [
        {
          "dsType": "influxdb",
          "expr": "sum by (le) (\n  increase(gitlab_runner_autoscaling_machine_creation_duration_seconds_bucket{environment=~\"$environment\", stage=~\"$stage\", executor=\"docker+machine\",instance=~\"${runner_manager:pipe}\"}[$__interval])\n)\n",
          "format": "heatmap",
          "groupBy": [
            {
              "params": [
                "$__interval"
              ],
              "type": "time"
            },
            {
              "params": [
                "null"
              ],
              "type": "fill"
            }
          ],
          "interval": "$__interval",
          "intervalFactor": 2,
          "legendFormat": "{{le}}",
          "orderByTime": "ASC",
          "refId": "A",
          "select": [
            [
              {
                "params": [
                  "value"
                ],
                "type": "field"
              },
              {
                "params": [

                ],
                "type": "mean"
              }
            ]
          ]
        }
      ],
      "title": "Autoscaled VMs creation timing",
      "tooltip": {
        "show": true,
        "showHistogram": true
      },
      "tooltipDecimals": 3,
      "type": "heatmap",
      "xAxis": {
        "show": true
      },
      "xBucketNumber": null,
      "xBucketSize": null,
      "yAxis": {
        "decimals": 2,
        "format": "s",
        "show": true,
        "splitFactor": null
      },
      "yBucketBound": "auto"
    },
    {
      "aliasColors": {
      },
      "bars": false,
      "dashLength": 10,
      "dashes": false,
      "datasource": "$PROMETHEUS_DS",
      "decimals": 0,
      "description": "",
      "fill": 0,
      "fillGradient": 0,
      "gridPos": {
        "h": 8,
        "w": 12,
        "x": 0,
        "y": 4000
      },
      "id": 17,
      "legend": {
        "alignAsTable": true,
        "avg": true,
        "current": true,
        "hideEmpty": true,
        "max": true,
        "min": true,
        "rightSide": false,
        "show": true,
        "sideWidth": null,
        "total": false,
        "values": true
      },
      "lines": true,
      "linewidth": 2,
      "links": [

      ],
      "nullPointMode": "null",
      "percentage": false,
      "pointradius": 5,
      "points": false,
      "renderer": "flot",
      "repeat": null,
      "seriesOverrides": [
        {
          "alias": "/^Hard SLO/",
          "color": "#F2495C",
          "dashLength": 4,
          "dashes": true,
          "legend": true,
          "lines": true,
          "linewidth": 4,
          "nullPointMode": "connected",
          "spaceLength": 4,
          "zindex": -2
        },
        {
          "alias": "/^Soft SLO/",
          "color": "#FF4500",
          "dashLength": 4,
          "dashes": true,
          "legend": true,
          "lines": true,
          "linewidth": 2,
          "nullPointMode": "connected",
          "spaceLength": 10,
          "zindex": -2
        }
      ],
      "spaceLength": 10,
      "stack": false,
      "steppedLine": false,
      "targets": [
        {
          "expr": "sum by(project, region, quota) (\n  (\n    gcp_exporter_region_quota_usage{environment=~\"$environment\", stage=~\"$stage\", instance=~\"$gcp_exporter\",project=~\"${gcp_project:pipe}\",region=~\"${gcp_region:pipe}\"}\n    /\n    gcp_exporter_region_quota_limit{environment=~\"$environment\", stage=~\"$stage\", instance=~\"$gcp_exporter\",project=~\"${gcp_project:pipe}\",region=~\"${gcp_region:pipe}\"}\n  ) > 0\n)\n",
          "format": "time_series",
          "interval": "1m",
          "intervalFactor": 3,
          "legendFormat": "{{project}}: {{region}}: {{quota}}",
          "refId": "A"
        },
        {
          "expr": "0.85",
          "format": "time_series",
          "interval": "1m",
          "intervalFactor": 3,
          "legendFormat": "Soft SLO",
          "refId": "B"
        },
        {
          "expr": "0.9",
          "format": "time_series",
          "interval": "1m",
          "intervalFactor": 3,
          "legendFormat": "Hard SLO",
          "refId": "C"
        }
      ],
      "thresholds": [

      ],
      "timeFrom": null,
      "timeShift": null,
      "title": "GCP region quotas",
      "tooltip": {
        "shared": true,
        "sort": 2,
        "value_type": "individual"
      },
      "type": "graph",
      "xaxis": {
        "buckets": null,
        "mode": "time",
        "name": null,
        "show": true,
        "values": [

        ]
      },
      "yaxes": [
        {
          "format": "percentunit",
          "label": "",
          "logBase": 1,
          "max": null,
          "min": 0,
          "show": true
        },
        {
          "format": "short",
          "label": null,
          "logBase": 1,
          "max": 1,
          "min": 0,
          "show": false
        }
      ]
    },
    {
      "aliasColors": {
      },
      "bars": false,
      "dashLength": 10,
      "dashes": false,
      "datasource": "$PROMETHEUS_DS",
      "decimals": 0,
      "description": "",
      "fill": 1,
      "fillGradient": 0,
      "gridPos": {
        "h": 8,
        "w": 12,
        "x": 12,
        "y": 4000
      },
      "id": 18,
      "legend": {
        "alignAsTable": true,
        "avg": true,
        "current": true,
        "hideEmpty": true,
        "max": true,
        "min": true,
        "rightSide": false,
        "show": true,
        "sideWidth": null,
        "total": false,
        "values": true
      },
      "lines": true,
      "linewidth": 2,
      "links": [

      ],
      "nullPointMode": "null",
      "percentage": false,
      "pointradius": 5,
      "points": false,
      "renderer": "flot",
      "repeat": null,
      "seriesOverrides": [

      ],
      "spaceLength": 10,
      "stack": true,
      "steppedLine": false,
      "targets": [
        {
          "expr": "sum by (zone, machine_type_short, runner_group) (\n  label_replace(\n    label_replace(\n      gcp_exporter_instances_count{environment=~\"$environment\", stage=~\"$stage\", instance=~\"$gcp_exporter\",project=\"${gcp_project:pipe}\",zone=~\"(${gcp_region:pipe}).*\"},\n      \"machine_type_short\",\n      \"$1\",\n      \"machine_type\",\n      \".*/([^/]+)$\"\n    ),\n    \"runner_group\",\n    \"$2\",\n    \"tags\",\n    \"(.*,)?(srm|prm|gsrm)(,.*)?\"\n  )\n)\n",
          "format": "time_series",
          "interval": "1m",
          "intervalFactor": 3,
          "legendFormat": "{{runner_group}} - {{zone}} - {{machine_type_short}}",
          "refId": "A"
        }
      ],
      "thresholds": [

      ],
      "timeFrom": null,
      "timeShift": null,
      "title": "GCP instances",
      "tooltip": {
        "shared": true,
        "sort": 2,
        "value_type": "individual"
      },
      "type": "graph",
      "xaxis": {
        "buckets": null,
        "mode": "time",
        "name": null,
        "show": true,
        "values": [

        ]
      },
      "yaxes": [
        {
          "format": "short",
          "label": "",
          "logBase": 1,
          "max": null,
          "min": 0,
          "show": true
        },
        {
          "format": "short",
          "label": null,
          "logBase": 1,
          "max": 1,
          "min": 0,
          "show": false
        }
      ]
    }
  ],
  "refresh": "",
  "rows": [

  ],
  "schemaVersion": 16,
  "style": "light",
  "tags": [
    "managed",
    "ci-runners",
    "type:ci-runners",
    "managed",
    "ci-runners:incident-support",
    "ci-runners:incident-as"
  ],
  "templating": {
    "list": [
      {
        "current": {
          "text": "Global",
          "value": "Global"
        },
        "hide": 0,
        "label": null,
        "name": "PROMETHEUS_DS",
        "options": [

        ],
        "query": "prometheus",
        "refresh": 1,
        "regex": "",
        "type": "datasource"
      },
      {
        "allValue": null,
        "current": {
          "text": "gprd",
          "value": "gprd"
        },
        "datasource": "$PROMETHEUS_DS",
        "hide": 0,
        "includeAll": false,
        "label": null,
        "multi": false,
        "name": "environment",
        "options": [

        ],
        "query": "label_values(gitlab_service_ops:rate, environment)",
        "refresh": 1,
        "regex": "",
        "sort": 1,
        "tagValuesQuery": "",
        "tags": [

        ],
        "tagsQuery": "",
        "type": "query",
        "useTags": false
      },
      {
        "allValue": null,
        "current": {
          "text": "main",
          "value": "main"
        },
        "hide": 0,
        "includeAll": false,
        "label": "",
        "multi": false,
        "name": "stage",
        "options": [
          {
            "text": "main",
            "value": "main"
          },
          {
            "text": "cny",
            "value": "cny"
          },
          {
            "text": "",
            "value": ""
          }
        ],
        "query": "main,cny,",
        "refresh": 0,
        "type": "custom"
      },
      {
        "allValue": null,
        "current": {
        },
        "datasource": "$PROMETHEUS_DS",
        "hide": 0,
        "includeAll": true,
        "label": null,
        "multi": true,
        "name": "shard",
        "options": [

        ],
        "query": "label_values(gitlab_runner_version_info{environment=~\"$environment\",stage=~\"$stage\",job=~\".*\",job!~\"omnibus-runners|gprd-runner\",shard!=\"default\"}, shard)\n",
        "refresh": 1,
        "regex": "",
        "sort": true,
        "tagValuesQuery": "",
        "tags": [

        ],
        "tagsQuery": "",
        "type": "query",
        "useTags": false
      },
      {
        "allValue": null,
        "current": {
        },
        "datasource": "$PROMETHEUS_DS",
        "hide": 0,
        "includeAll": true,
        "label": null,
        "multi": true,
        "name": "runner_manager",
        "options": [

        ],
        "query": "query_result(label_replace(gitlab_runner_version_info{environment=~\"$environment\",stage=~\"$stage\",shard=~\"$shard\"}, \"fqdn\", \"$1.*\", \"instance\", \"([^:]*)(:[0-9]+)?$\"))\n",
        "refresh": 1,
        "regex": "/fqdn=\"([^\"]+)\"/",
        "sort": true,
        "tagValuesQuery": "",
        "tags": [

        ],
        "tagsQuery": "",
        "type": "query",
        "useTags": false
      },
      {
        "allValue": null,
        "current": {
          "text": "0",
          "value": "0"
        },
        "datasource": "$PROMETHEUS_DS",
        "hide": 0,
        "includeAll": true,
        "label": null,
        "multi": true,
        "name": "jobs_running_for_project",
        "options": [

        ],
        "query": "label_values(job_queue_duration_seconds_sum{environment=~\"$environment\",stage=~\"$stage\"}, jobs_running_for_project)\n",
        "refresh": 1,
        "regex": "",
        "sort": true,
        "tagValuesQuery": "",
        "tags": [

        ],
        "tagsQuery": "",
        "type": "query",
        "useTags": false
      },
      {
        "allValue": null,
        "current": {
        },
        "datasource": "$PROMETHEUS_DS",
        "hide": 0,
        "includeAll": false,
        "label": null,
        "multi": false,
        "name": "gcp_exporter",
        "options": [

        ],
        "query": "label_values(gcp_exporter_region_quota_limit{environment=~\"$environment\",stage=~\"$stage\"}, instance)\n",
        "refresh": 1,
        "regex": "",
        "sort": true,
        "tagValuesQuery": "",
        "tags": [

        ],
        "tagsQuery": "",
        "type": "query",
        "useTags": false
      },
      {
        "allValue": null,
        "current": {
        },
        "datasource": "$PROMETHEUS_DS",
        "hide": 0,
        "includeAll": true,
        "label": null,
        "multi": true,
        "name": "gcp_project",
        "options": [

        ],
        "query": "label_values(gcp_exporter_region_quota_limit{environment=~\"$environment\",stage=~\"$stage\"}, project)\n",
        "refresh": 1,
        "regex": "",
        "sort": true,
        "tagValuesQuery": "",
        "tags": [

        ],
        "tagsQuery": "",
        "type": "query",
        "useTags": false
      },
      {
        "allValue": null,
        "current": {
        },
        "datasource": "$PROMETHEUS_DS",
        "hide": 0,
        "includeAll": true,
        "label": null,
        "multi": true,
        "name": "gcp_region",
        "options": [

        ],
        "query": "label_values(gcp_exporter_region_quota_usage{environment=~\"$environment\",stage=~\"$stage\"}, region)\n",
        "refresh": 1,
        "regex": "",
        "sort": true,
        "tagValuesQuery": "",
        "tags": [

        ],
        "tagsQuery": "",
        "type": "query",
        "useTags": false
      }
    ]
  },
  "time": {
    "from": "now-3h/m",
    "to": "now/m"
  },
  "timepicker": {
    "refresh_intervals": [
      "1m",
      "5m",
      "10m",
      "15m",
      "30m"
    ],
    "time_options": [
      "5m",
      "15m",
      "1h",
      "6h",
      "12h",
      "24h",
      "2d",
      "7d",
      "30d"
    ]
  },
  "timezone": "utc",
  "title": "ci-runners: Incident Support: autoscaling",
  "uid": "ci-runners-incident-autoscaling",
  "version": 1174
}