{
  "__inputs": [

  ],
  "__requires": [

  ],
  "annotations": {
    "list": [

    ]
  },
  "description": "Uploaded by https://gitlab.com/gitlab-com/runbooks/-/jobs/2522505129 at Mon May 30 12:53:41 UTC 2022",
  "editable": false,
  "gnetId": null,
  "graphTooltip": 1,
  "hideControls": false,
  "id": null,
  "links": [
    {
      "asDropdown": true,
      "icon": "external link",
      "includeVars": true,
      "keepTime": true,
      "tags": [
        "managed",
        "service overview"
      ],
      "targetBlank": false,
      "title": "Service Overview Dashboards",
      "type": "dashboards",
      "url": ""
    },
    {
      "asDropdown": true,
      "icon": "external link",
      "includeVars": false,
      "keepTime": true,
      "tags": "",
      "targetBlank": false,
      "title": "Platform Triage",
      "type": "link",
      "url": "https://dashboards.gitlab.net/d/general-triage/platform-triage?orgId=1"
    }
  ],
  "panels": [
    {
      "collapse": false,
      "collapsed": false,
      "gridPos": {
        "h": 1,
        "w": 24,
        "x": 0,
        "y": 0
      },
      "id": 2,
      "panels": [

      ],
      "repeat": null,
      "repeatIteration": null,
      "repeatRowId": null,
      "showTitle": true,
      "title": "Overall GitLab.com Availability Points Spent",
      "titleSize": "h6",
      "type": "row"
    },
    {
      "datasource": "$PROMETHEUS_DS",
      "description": "Availability",
      "fieldConfig": {
        "defaults": {
          "decimals": 2,
          "links": [

          ],
          "mappings": [

          ],
          "max": 1,
          "min": 0,
          "thresholds": {
            "mode": "absolute",
            "steps": [
              {
                "color": "green",
                "value": 0.019999999999997797
              },
              {
                "color": "light-yellow",
                "value": 0.04999999999999449
              },
              {
                "color": "yellow",
                "value": 0.060000000000004494
              },
              {
                "color": "light-orange",
                "value": 0.5000000000000004
              },
              {
                "color": "orange",
                "value": 1.0000000000000009
              },
              {
                "color": "light-red",
                "value": 5.000000000000004
              },
              {
                "color": "red",
                "value": 100
              }
            ]
          },
          "unit": ""
        }
      },
      "gridPos": {
        "h": 5,
        "w": 4,
        "x": 0,
        "y": 1
      },
      "id": 3,
      "links": [

      ],
      "options": {
        "colorMode": "background",
        "graphMode": "none",
        "justifyMode": "auto",
        "orientation": "auto",
        "reduceOptions": {
          "calcs": [
            "last"
          ],
          "fields": "",
          "values": true
        },
        "textMode": "auto"
      },
      "pluginVersion": "7",
      "targets": [
        {
          "expr": "(1 - avg(\n  clamp_max(\n    avg_over_time(sla:gitlab:ratio{env=~\"ops|$environment\",environment=\"$environment\",monitor=~\"global|\",stage=\"$stage\"}[$__range]),\n    1\n  )\n)\n) * ($__range_ms / (86400000 * 30.5)) * 100 * 100\n",
          "format": "time_series",
          "instant": true,
          "interval": "1m",
          "intervalFactor": 3,
          "legendFormat": "",
          "refId": "A"
        }
      ],
      "title": "Total GitLab.com Availability Basis Points Spent",
      "transparent": false,
      "type": "stat"
    },
    {
      "datasource": "$PROMETHEUS_DS",
      "description": "Availability",
      "fieldConfig": {
        "defaults": {
          "decimals": 0,
          "links": [

          ],
          "mappings": [

          ],
          "max": 1,
          "min": 0,
          "thresholds": {
            "mode": "absolute",
            "steps": [
              {
                "color": "green",
                "value": 0.019999999999997797
              },
              {
                "color": "light-yellow",
                "value": 0.04999999999999449
              },
              {
                "color": "yellow",
                "value": 0.060000000000004494
              },
              {
                "color": "light-orange",
                "value": 0.5000000000000004
              },
              {
                "color": "orange",
                "value": 1.0000000000000009
              },
              {
                "color": "light-red",
                "value": 5.000000000000004
              },
              {
                "color": "red",
                "value": 100
              }
            ]
          },
          "unit": ""
        }
      },
      "gridPos": {
        "h": 5,
        "w": 4,
        "x": 4,
        "y": 1
      },
      "id": 4,
      "links": [

      ],
      "options": {
        "colorMode": "background",
        "graphMode": "none",
        "justifyMode": "auto",
        "orientation": "auto",
        "reduceOptions": {
          "calcs": [
            "last"
          ],
          "fields": "",
          "values": true
        },
        "textMode": "auto"
      },
      "pluginVersion": "7",
      "targets": [
        {
          "expr": "(1 - sla:gitlab:target{monitor=\"global\"}) * 100 * 100\n",
          "format": "time_series",
          "instant": true,
          "interval": "1m",
          "intervalFactor": 3,
          "legendFormat": "",
          "refId": "A"
        }
      ],
      "title": "Monthly Availability Basis Points Budget",
      "transparent": false,
      "type": "stat"
    },
    {
      "aliasColors": {
      },
      "bars": false,
      "dashLength": 10,
      "dashes": false,
      "datasource": "$PROMETHEUS_DS",
      "decimals": 2,
      "description": "Rolling average SLO adherence across all primary services. Higher is better.",
      "fill": 0,
      "fillGradient": 0,
      "gridPos": {
        "h": 5,
        "w": 16,
        "x": 8,
        "y": 1
      },
      "id": 5,
      "legend": {
        "alignAsTable": true,
        "avg": true,
        "current": true,
        "hideEmpty": true,
        "max": true,
        "min": true,
        "rightSide": false,
        "show": false,
        "sideWidth": null,
        "total": false,
        "values": true
      },
      "lines": true,
      "linewidth": 2,
      "links": [

      ],
      "nullPointMode": "null",
      "percentage": false,
      "pointradius": 3,
      "points": false,
      "renderer": "flot",
      "repeat": null,
      "seriesOverrides": [
        {
          "alias": "gitlab.com SLA",
          "color": "#E7D551",
          "zindex": 3
        }
      ],
      "spaceLength": 10,
      "stack": false,
      "steppedLine": false,
      "targets": [
        {
          "expr": "clamp_min(clamp_max(avg(\n  clamp_max(\n    avg_over_time(sla:gitlab:ratio{env=~\"ops|$environment\",environment=\"$environment\",monitor=~\"global|\",stage=\"$stage\"}[$__interval]),\n    1\n  )\n)\n,1),0)\n",
          "format": "time_series",
          "interval": "1m",
          "intervalFactor": 3,
          "legendFormat": "gitlab.com SLA",
          "refId": "A"
        }
      ],
      "thresholds": [
        {
          "colorMode": "custom",
          "fill": true,
          "fillColor": "rgba(242, 73, 92, 0.5)",
          "line": false,
          "op": "lt",
          "value": 0.9995,
          "yaxis": "left"
        }
      ],
      "timeFrom": null,
      "timeShift": null,
      "title": "Availability - gitlab.com",
      "tooltip": {
        "shared": true,
        "sort": 2,
        "value_type": "individual"
      },
      "type": "graph",
      "xaxis": {
        "buckets": null,
        "mode": "time",
        "name": null,
        "show": true,
        "values": [

        ]
      },
      "yaxes": [
        {
          "format": "percentunit",
          "label": "SLA",
          "logBase": 1,
          "max": 1,
          "min": null,
          "show": true
        },
        {
          "format": "short",
          "label": null,
          "logBase": 1,
          "max": 1,
          "min": 0,
          "show": false
        }
      ]
    },
    {
      "collapse": false,
      "collapsed": false,
      "gridPos": {
        "h": 1,
        "w": 24,
        "x": 0,
        "y": 2000
      },
      "id": 6,
      "panels": [

      ],
      "repeat": null,
      "repeatIteration": null,
      "repeatRowId": null,
      "showTitle": true,
      "title": "Primary Services",
      "titleSize": "h6",
      "type": "row"
    },
    {
      "datasource": "$PROMETHEUS_DS",
      "description": "Availability",
      "fieldConfig": {
        "defaults": {
          "decimals": 2,
          "displayName": "GitLab.com Web",
          "links": [

          ],
          "mappings": [

          ],
          "max": 1,
          "min": 0,
          "thresholds": {
            "mode": "absolute",
            "steps": [
              {
                "color": "green",
                "value": 0.019999999999997797
              },
              {
                "color": "light-yellow",
                "value": 0.04999999999999449
              },
              {
                "color": "yellow",
                "value": 0.060000000000004494
              },
              {
                "color": "light-orange",
                "value": 0.5000000000000004
              },
              {
                "color": "orange",
                "value": 1.0000000000000009
              },
              {
                "color": "light-red",
                "value": 5.000000000000004
              },
              {
                "color": "red",
                "value": 100
              }
            ]
          },
          "unit": ""
        }
      },
      "gridPos": {
        "h": 5,
        "w": 6,
        "x": 0,
        "y": 2101
      },
      "id": 7,
      "links": [
        {
          "title": "web service: Overview Dashboard",
          "url": "/d/web-main/web-overview?orgId=1&${__url_time_range}"
        }
      ],
      "options": {
        "colorMode": "background",
        "graphMode": "none",
        "justifyMode": "auto",
        "orientation": "auto",
        "reduceOptions": {
          "calcs": [
            "last"
          ],
          "fields": "",
          "values": true
        },
        "textMode": "auto"
      },
      "pluginVersion": "7",
      "targets": [
        {
          "expr": "(1 - avg(\n  clamp_max(\n    avg_over_time(slo_observation_status{env=~\"ops|$environment\",environment=\"$environment\",monitor=~\"global|\",stage=\"$stage\",type=\"web\"}[$__range]),\n    1\n  )\n)\n) * ($__range_ms / (86400000 * 30.5)) * 100 * 100\n",
          "format": "time_series",
          "instant": true,
          "interval": "1m",
          "intervalFactor": 3,
          "legendFormat": "GitLab.com Web: Availability Basis Points Spent",
          "refId": "A"
        }
      ],
      "title": "",
      "transparent": false,
      "type": "stat"
    },
    {
      "datasource": null,
      "description": "",
      "fieldConfig": {
        "defaults": {
          "decimals": 0,
          "displayName": "Weight",
          "links": [

          ],
          "mappings": [

          ],
          "thresholds": {
            "mode": "absolute",
            "steps": [
              {
                "color": "black",
                "value": null
              }
            ]
          },
          "unit": ""
        }
      },
      "gridPos": {
        "h": 5,
        "w": 2,
        "x": 6,
        "y": 2101
      },
      "id": 8,
      "links": [

      ],
      "options": {
        "colorMode": "background",
        "graphMode": "none",
        "justifyMode": "auto",
        "orientation": "vertical",
        "reduceOptions": {
          "calcs": [
            "lastNotNull"
          ],
          "fields": "",
          "values": false
        },
        "textMode": "auto"
      },
      "pluginVersion": "7",
      "targets": [
        {
          "expr": "5",
          "format": "time_series",
          "instant": false,
          "interval": "1m",
          "intervalFactor": 3,
          "legendFormat": "Overall Weight",
          "refId": "A"
        }
      ],
      "title": "",
      "transparent": false,
      "type": "stat"
    },
    {
      "aliasColors": {
      },
      "bars": false,
      "dashLength": 10,
      "dashes": false,
      "datasource": "$PROMETHEUS_DS",
      "decimals": 2,
      "description": "Rolling average SLO adherence for primary services. Higher is better.",
      "fill": 0,
      "fillGradient": 0,
      "gridPos": {
        "h": 5,
        "w": 16,
        "x": 8,
        "y": 2101
      },
      "id": 9,
      "legend": {
        "alignAsTable": true,
        "avg": true,
        "current": true,
        "hideEmpty": true,
        "max": true,
        "min": true,
        "rightSide": false,
        "show": false,
        "sideWidth": null,
        "total": false,
        "values": true
      },
      "lines": true,
      "linewidth": 2,
      "links": [

      ],
      "nullPointMode": "null",
      "options": {
        "dataLinks": [
          {
            "title": "web service: Overview Dashboard",
            "url": "/d/web-main/web-overview?orgId=1&${__url_time_range}"
          }
        ]
      },
      "percentage": false,
      "pointradius": 3,
      "points": false,
      "renderer": "flot",
      "repeat": null,
      "seriesOverrides": [

      ],
      "spaceLength": 10,
      "stack": false,
      "steppedLine": false,
      "targets": [
        {
          "expr": "clamp_min(clamp_max(avg(\n  clamp_max(\n    avg_over_time(slo_observation_status{env=~\"ops|$environment\",environment=\"$environment\",monitor=~\"global|\",stage=\"$stage\",type=\"web\"}[$__interval]),\n    1\n  )\n)\n,1),0)\n",
          "format": "time_series",
          "interval": "1m",
          "intervalFactor": 3,
          "legendFormat": "{{ type }}",
          "refId": "A"
        }
      ],
      "thresholds": [
        {
          "colorMode": "custom",
          "fill": true,
          "fillColor": "rgba(242, 73, 92, 0.5)",
          "line": false,
          "op": "lt",
          "value": 0.9995,
          "yaxis": "left"
        }
      ],
      "timeFrom": null,
      "timeShift": null,
      "title": "GitLab.com Web: Availability ",
      "tooltip": {
        "shared": true,
        "sort": 2,
        "value_type": "individual"
      },
      "type": "graph",
      "xaxis": {
        "buckets": null,
        "mode": "time",
        "name": null,
        "show": true,
        "values": [

        ]
      },
      "yaxes": [
        {
          "format": "percentunit",
          "label": "SLA",
          "logBase": 1,
          "max": 1,
          "min": null,
          "show": true
        },
        {
          "format": "short",
          "label": null,
          "logBase": 1,
          "max": 1,
          "min": 0,
          "show": false
        }
      ]
    },
    {
      "datasource": "$PROMETHEUS_DS",
      "description": "Availability",
      "fieldConfig": {
        "defaults": {
          "decimals": 2,
          "displayName": "Git Access",
          "links": [

          ],
          "mappings": [

          ],
          "max": 1,
          "min": 0,
          "thresholds": {
            "mode": "absolute",
            "steps": [
              {
                "color": "green",
                "value": 0.019999999999997797
              },
              {
                "color": "light-yellow",
                "value": 0.04999999999999449
              },
              {
                "color": "yellow",
                "value": 0.060000000000004494
              },
              {
                "color": "light-orange",
                "value": 0.5000000000000004
              },
              {
                "color": "orange",
                "value": 1.0000000000000009
              },
              {
                "color": "light-red",
                "value": 5.000000000000004
              },
              {
                "color": "red",
                "value": 100
              }
            ]
          },
          "unit": ""
        }
      },
      "gridPos": {
        "h": 5,
        "w": 6,
        "x": 0,
        "y": 2106
      },
      "id": 10,
      "links": [
        {
          "title": "git service: Overview Dashboard",
          "url": "/d/git-main/git-overview?orgId=1&${__url_time_range}"
        }
      ],
      "options": {
        "colorMode": "background",
        "graphMode": "none",
        "justifyMode": "auto",
        "orientation": "auto",
        "reduceOptions": {
          "calcs": [
            "last"
          ],
          "fields": "",
          "values": true
        },
        "textMode": "auto"
      },
      "pluginVersion": "7",
      "targets": [
        {
          "expr": "(1 - avg(\n  clamp_max(\n    avg_over_time(slo_observation_status{env=~\"ops|$environment\",environment=\"$environment\",monitor=~\"global|\",stage=\"$stage\",type=\"git\"}[$__range]),\n    1\n  )\n)\n) * ($__range_ms / (86400000 * 30.5)) * 100 * 100\n",
          "format": "time_series",
          "instant": true,
          "interval": "1m",
          "intervalFactor": 3,
          "legendFormat": "Git Access: Availability Basis Points Spent",
          "refId": "A"
        }
      ],
      "title": "",
      "transparent": false,
      "type": "stat"
    },
    {
      "datasource": null,
      "description": "",
      "fieldConfig": {
        "defaults": {
          "decimals": 0,
          "displayName": "Weight",
          "links": [

          ],
          "mappings": [

          ],
          "thresholds": {
            "mode": "absolute",
            "steps": [
              {
                "color": "black",
                "value": null
              }
            ]
          },
          "unit": ""
        }
      },
      "gridPos": {
        "h": 5,
        "w": 2,
        "x": 6,
        "y": 2106
      },
      "id": 11,
      "links": [

      ],
      "options": {
        "colorMode": "background",
        "graphMode": "none",
        "justifyMode": "auto",
        "orientation": "vertical",
        "reduceOptions": {
          "calcs": [
            "lastNotNull"
          ],
          "fields": "",
          "values": false
        },
        "textMode": "auto"
      },
      "pluginVersion": "7",
      "targets": [
        {
          "expr": "5",
          "format": "time_series",
          "instant": false,
          "interval": "1m",
          "intervalFactor": 3,
          "legendFormat": "Overall Weight",
          "refId": "A"
        }
      ],
      "title": "",
      "transparent": false,
      "type": "stat"
    },
    {
      "aliasColors": {
      },
      "bars": false,
      "dashLength": 10,
      "dashes": false,
      "datasource": "$PROMETHEUS_DS",
      "decimals": 2,
      "description": "Rolling average SLO adherence for primary services. Higher is better.",
      "fill": 0,
      "fillGradient": 0,
      "gridPos": {
        "h": 5,
        "w": 16,
        "x": 8,
        "y": 2106
      },
      "id": 12,
      "legend": {
        "alignAsTable": true,
        "avg": true,
        "current": true,
        "hideEmpty": true,
        "max": true,
        "min": true,
        "rightSide": false,
        "show": false,
        "sideWidth": null,
        "total": false,
        "values": true
      },
      "lines": true,
      "linewidth": 2,
      "links": [

      ],
      "nullPointMode": "null",
      "options": {
        "dataLinks": [
          {
            "title": "git service: Overview Dashboard",
            "url": "/d/git-main/git-overview?orgId=1&${__url_time_range}"
          }
        ]
      },
      "percentage": false,
      "pointradius": 3,
      "points": false,
      "renderer": "flot",
      "repeat": null,
      "seriesOverrides": [

      ],
      "spaceLength": 10,
      "stack": false,
      "steppedLine": false,
      "targets": [
        {
          "expr": "clamp_min(clamp_max(avg(\n  clamp_max(\n    avg_over_time(slo_observation_status{env=~\"ops|$environment\",environment=\"$environment\",monitor=~\"global|\",stage=\"$stage\",type=\"git\"}[$__interval]),\n    1\n  )\n)\n,1),0)\n",
          "format": "time_series",
          "interval": "1m",
          "intervalFactor": 3,
          "legendFormat": "{{ type }}",
          "refId": "A"
        }
      ],
      "thresholds": [
        {
          "colorMode": "custom",
          "fill": true,
          "fillColor": "rgba(242, 73, 92, 0.5)",
          "line": false,
          "op": "lt",
          "value": 0.9995,
          "yaxis": "left"
        }
      ],
      "timeFrom": null,
      "timeShift": null,
      "title": "Git Access: Availability ",
      "tooltip": {
        "shared": true,
        "sort": 2,
        "value_type": "individual"
      },
      "type": "graph",
      "xaxis": {
        "buckets": null,
        "mode": "time",
        "name": null,
        "show": true,
        "values": [

        ]
      },
      "yaxes": [
        {
          "format": "percentunit",
          "label": "SLA",
          "logBase": 1,
          "max": 1,
          "min": null,
          "show": true
        },
        {
          "format": "short",
          "label": null,
          "logBase": 1,
          "max": 1,
          "min": 0,
          "show": false
        }
      ]
    },
    {
      "datasource": "$PROMETHEUS_DS",
      "description": "Availability",
      "fieldConfig": {
        "defaults": {
          "decimals": 2,
          "displayName": "GitLab API",
          "links": [

          ],
          "mappings": [

          ],
          "max": 1,
          "min": 0,
          "thresholds": {
            "mode": "absolute",
            "steps": [
              {
                "color": "green",
                "value": 0.019999999999997797
              },
              {
                "color": "light-yellow",
                "value": 0.04999999999999449
              },
              {
                "color": "yellow",
                "value": 0.060000000000004494
              },
              {
                "color": "light-orange",
                "value": 0.5000000000000004
              },
              {
                "color": "orange",
                "value": 1.0000000000000009
              },
              {
                "color": "light-red",
                "value": 5.000000000000004
              },
              {
                "color": "red",
                "value": 100
              }
            ]
          },
          "unit": ""
        }
      },
      "gridPos": {
        "h": 5,
        "w": 6,
        "x": 0,
        "y": 2111
      },
      "id": 13,
      "links": [
        {
          "title": "api service: Overview Dashboard",
          "url": "/d/api-main/api-overview?orgId=1&${__url_time_range}"
        }
      ],
      "options": {
        "colorMode": "background",
        "graphMode": "none",
        "justifyMode": "auto",
        "orientation": "auto",
        "reduceOptions": {
          "calcs": [
            "last"
          ],
          "fields": "",
          "values": true
        },
        "textMode": "auto"
      },
      "pluginVersion": "7",
      "targets": [
        {
          "expr": "(1 - avg(\n  clamp_max(\n    avg_over_time(slo_observation_status{env=~\"ops|$environment\",environment=\"$environment\",monitor=~\"global|\",stage=\"$stage\",type=\"api\"}[$__range]),\n    1\n  )\n)\n) * ($__range_ms / (86400000 * 30.5)) * 100 * 100\n",
          "format": "time_series",
          "instant": true,
          "interval": "1m",
          "intervalFactor": 3,
          "legendFormat": "GitLab API: Availability Basis Points Spent",
          "refId": "A"
        }
      ],
      "title": "",
      "transparent": false,
      "type": "stat"
    },
    {
      "datasource": null,
      "description": "",
      "fieldConfig": {
        "defaults": {
          "decimals": 0,
          "displayName": "Weight",
          "links": [

          ],
          "mappings": [

          ],
          "thresholds": {
            "mode": "absolute",
            "steps": [
              {
                "color": "black",
                "value": null
              }
            ]
          },
          "unit": ""
        }
      },
      "gridPos": {
        "h": 5,
        "w": 2,
        "x": 6,
        "y": 2111
      },
      "id": 14,
      "links": [

      ],
      "options": {
        "colorMode": "background",
        "graphMode": "none",
        "justifyMode": "auto",
        "orientation": "vertical",
        "reduceOptions": {
          "calcs": [
            "lastNotNull"
          ],
          "fields": "",
          "values": false
        },
        "textMode": "auto"
      },
      "pluginVersion": "7",
      "targets": [
        {
          "expr": "5",
          "format": "time_series",
          "instant": false,
          "interval": "1m",
          "intervalFactor": 3,
          "legendFormat": "Overall Weight",
          "refId": "A"
        }
      ],
      "title": "",
      "transparent": false,
      "type": "stat"
    },
    {
      "aliasColors": {
      },
      "bars": false,
      "dashLength": 10,
      "dashes": false,
      "datasource": "$PROMETHEUS_DS",
      "decimals": 2,
      "description": "Rolling average SLO adherence for primary services. Higher is better.",
      "fill": 0,
      "fillGradient": 0,
      "gridPos": {
        "h": 5,
        "w": 16,
        "x": 8,
        "y": 2111
      },
      "id": 15,
      "legend": {
        "alignAsTable": true,
        "avg": true,
        "current": true,
        "hideEmpty": true,
        "max": true,
        "min": true,
        "rightSide": false,
        "show": false,
        "sideWidth": null,
        "total": false,
        "values": true
      },
      "lines": true,
      "linewidth": 2,
      "links": [

      ],
      "nullPointMode": "null",
      "options": {
        "dataLinks": [
          {
            "title": "api service: Overview Dashboard",
            "url": "/d/api-main/api-overview?orgId=1&${__url_time_range}"
          }
        ]
      },
      "percentage": false,
      "pointradius": 3,
      "points": false,
      "renderer": "flot",
      "repeat": null,
      "seriesOverrides": [

      ],
      "spaceLength": 10,
      "stack": false,
      "steppedLine": false,
      "targets": [
        {
          "expr": "clamp_min(clamp_max(avg(\n  clamp_max(\n    avg_over_time(slo_observation_status{env=~\"ops|$environment\",environment=\"$environment\",monitor=~\"global|\",stage=\"$stage\",type=\"api\"}[$__interval]),\n    1\n  )\n)\n,1),0)\n",
          "format": "time_series",
          "interval": "1m",
          "intervalFactor": 3,
          "legendFormat": "{{ type }}",
          "refId": "A"
        }
      ],
      "thresholds": [
        {
          "colorMode": "custom",
          "fill": true,
          "fillColor": "rgba(242, 73, 92, 0.5)",
          "line": false,
          "op": "lt",
          "value": 0.9995,
          "yaxis": "left"
        }
      ],
      "timeFrom": null,
      "timeShift": null,
      "title": "GitLab API: Availability ",
      "tooltip": {
        "shared": true,
        "sort": 2,
        "value_type": "individual"
      },
      "type": "graph",
      "xaxis": {
        "buckets": null,
        "mode": "time",
        "name": null,
        "show": true,
        "values": [

        ]
      },
      "yaxes": [
        {
          "format": "percentunit",
          "label": "SLA",
          "logBase": 1,
          "max": 1,
          "min": null,
          "show": true
        },
        {
          "format": "short",
          "label": null,
          "logBase": 1,
          "max": 1,
          "min": 0,
          "show": false
        }
      ]
    },
    {
      "datasource": "$PROMETHEUS_DS",
      "description": "Availability",
      "fieldConfig": {
        "defaults": {
          "decimals": 2,
          "displayName": "CI Runners",
          "links": [

          ],
          "mappings": [

          ],
          "max": 1,
          "min": 0,
          "thresholds": {
            "mode": "absolute",
            "steps": [
              {
                "color": "green",
                "value": 0.019999999999997797
              },
              {
                "color": "light-yellow",
                "value": 0.04999999999999449
              },
              {
                "color": "yellow",
                "value": 0.060000000000004494
              },
              {
                "color": "light-orange",
                "value": 0.5000000000000004
              },
              {
                "color": "orange",
                "value": 1.0000000000000009
              },
              {
                "color": "light-red",
                "value": 5.000000000000004
              },
              {
                "color": "red",
                "value": 100
              }
            ]
          },
          "unit": ""
        }
      },
      "gridPos": {
        "h": 5,
        "w": 6,
        "x": 0,
        "y": 2116
      },
      "id": 16,
      "links": [
        {
          "title": "ci-runners service: Overview Dashboard",
          "url": "/d/ci-runners-main/ci-runners-overview?orgId=1&${__url_time_range}"
        }
      ],
      "options": {
        "colorMode": "background",
        "graphMode": "none",
        "justifyMode": "auto",
        "orientation": "auto",
        "reduceOptions": {
          "calcs": [
            "last"
          ],
          "fields": "",
          "values": true
        },
        "textMode": "auto"
      },
      "pluginVersion": "7",
      "targets": [
        {
          "expr": "(1 - avg(\n  clamp_max(\n    avg_over_time(slo_observation_status{env=~\"ops|$environment\",environment=\"$environment\",monitor=~\"global|\",stage=\"$stage\",type=\"ci-runners\"}[$__range]),\n    1\n  )\n)\n) * ($__range_ms / (86400000 * 30.5)) * 100 * 100\n",
          "format": "time_series",
          "instant": true,
          "interval": "1m",
          "intervalFactor": 3,
          "legendFormat": "CI Runners: Availability Basis Points Spent",
          "refId": "A"
        }
      ],
      "title": "",
      "transparent": false,
      "type": "stat"
    },
    {
      "datasource": null,
      "description": "",
      "fieldConfig": {
        "defaults": {
          "decimals": 0,
          "displayName": "Weight",
          "links": [

          ],
          "mappings": [

          ],
          "thresholds": {
            "mode": "absolute",
            "steps": [
              {
                "color": "black",
                "value": null
              }
            ]
          },
          "unit": ""
        }
      },
      "gridPos": {
        "h": 5,
        "w": 2,
        "x": 6,
        "y": 2116
      },
      "id": 17,
      "links": [

      ],
      "options": {
        "colorMode": "background",
        "graphMode": "none",
        "justifyMode": "auto",
        "orientation": "vertical",
        "reduceOptions": {
          "calcs": [
            "lastNotNull"
          ],
          "fields": "",
          "values": false
        },
        "textMode": "auto"
      },
      "pluginVersion": "7",
      "targets": [
        {
          "expr": "0",
          "format": "time_series",
          "instant": false,
          "interval": "1m",
          "intervalFactor": 3,
          "legendFormat": "Overall Weight",
          "refId": "A"
        }
      ],
      "title": "",
      "transparent": false,
      "type": "stat"
    },
    {
      "aliasColors": {
      },
      "bars": false,
      "dashLength": 10,
      "dashes": false,
      "datasource": "$PROMETHEUS_DS",
      "decimals": 2,
      "description": "Rolling average SLO adherence for primary services. Higher is better.",
      "fill": 0,
      "fillGradient": 0,
      "gridPos": {
        "h": 5,
        "w": 16,
        "x": 8,
        "y": 2116
      },
      "id": 18,
      "legend": {
        "alignAsTable": true,
        "avg": true,
        "current": true,
        "hideEmpty": true,
        "max": true,
        "min": true,
        "rightSide": false,
        "show": false,
        "sideWidth": null,
        "total": false,
        "values": true
      },
      "lines": true,
      "linewidth": 2,
      "links": [

      ],
      "nullPointMode": "null",
      "options": {
        "dataLinks": [
          {
            "title": "ci-runners service: Overview Dashboard",
            "url": "/d/ci-runners-main/ci-runners-overview?orgId=1&${__url_time_range}"
          }
        ]
      },
      "percentage": false,
      "pointradius": 3,
      "points": false,
      "renderer": "flot",
      "repeat": null,
      "seriesOverrides": [

      ],
      "spaceLength": 10,
      "stack": false,
      "steppedLine": false,
      "targets": [
        {
          "expr": "clamp_min(clamp_max(avg(\n  clamp_max(\n    avg_over_time(slo_observation_status{env=~\"ops|$environment\",environment=\"$environment\",monitor=~\"global|\",stage=\"$stage\",type=\"ci-runners\"}[$__interval]),\n    1\n  )\n)\n,1),0)\n",
          "format": "time_series",
          "interval": "1m",
          "intervalFactor": 3,
          "legendFormat": "{{ type }}",
          "refId": "A"
        }
      ],
      "thresholds": [
        {
          "colorMode": "custom",
          "fill": true,
          "fillColor": "rgba(242, 73, 92, 0.5)",
          "line": false,
          "op": "lt",
          "value": 0.9995,
          "yaxis": "left"
        }
      ],
      "timeFrom": null,
      "timeShift": null,
      "title": "CI Runners: Availability ",
      "tooltip": {
        "shared": true,
        "sort": 2,
        "value_type": "individual"
      },
      "type": "graph",
      "xaxis": {
        "buckets": null,
        "mode": "time",
        "name": null,
        "show": true,
        "values": [

        ]
      },
      "yaxes": [
        {
          "format": "percentunit",
          "label": "SLA",
          "logBase": 1,
          "max": 1,
          "min": null,
          "show": true
        },
        {
          "format": "short",
          "label": null,
          "logBase": 1,
          "max": 1,
          "min": 0,
          "show": false
        }
      ]
    },
    {
      "datasource": "$PROMETHEUS_DS",
      "description": "Availability",
      "fieldConfig": {
        "defaults": {
          "decimals": 2,
          "displayName": "Container Registry",
          "links": [

          ],
          "mappings": [

          ],
          "max": 1,
          "min": 0,
          "thresholds": {
            "mode": "absolute",
            "steps": [
              {
                "color": "green",
                "value": 0.019999999999997797
              },
              {
                "color": "light-yellow",
                "value": 0.04999999999999449
              },
              {
                "color": "yellow",
                "value": 0.060000000000004494
              },
              {
                "color": "light-orange",
                "value": 0.5000000000000004
              },
              {
                "color": "orange",
                "value": 1.0000000000000009
              },
              {
                "color": "light-red",
                "value": 5.000000000000004
              },
              {
                "color": "red",
                "value": 100
              }
            ]
          },
          "unit": ""
        }
      },
      "gridPos": {
        "h": 5,
        "w": 6,
        "x": 0,
        "y": 2121
      },
      "id": 19,
      "links": [
        {
          "title": "registry service: Overview Dashboard",
          "url": "/d/registry-main/registry-overview?orgId=1&${__url_time_range}"
        }
      ],
      "options": {
        "colorMode": "background",
        "graphMode": "none",
        "justifyMode": "auto",
        "orientation": "auto",
        "reduceOptions": {
          "calcs": [
            "last"
          ],
          "fields": "",
          "values": true
        },
        "textMode": "auto"
      },
      "pluginVersion": "7",
      "targets": [
        {
          "expr": "(1 - avg(\n  clamp_max(\n    avg_over_time(slo_observation_status{env=~\"ops|$environment\",environment=\"$environment\",monitor=~\"global|\",stage=\"$stage\",type=\"registry\"}[$__range]),\n    1\n  )\n)\n) * ($__range_ms / (86400000 * 30.5)) * 100 * 100\n",
          "format": "time_series",
          "instant": true,
          "interval": "1m",
          "intervalFactor": 3,
          "legendFormat": "Container Registry: Availability Basis Points Spent",
          "refId": "A"
        }
      ],
      "title": "",
      "transparent": false,
      "type": "stat"
    },
    {
      "datasource": null,
      "description": "",
      "fieldConfig": {
        "defaults": {
          "decimals": 0,
          "displayName": "Weight",
          "links": [

          ],
          "mappings": [

          ],
          "thresholds": {
            "mode": "absolute",
            "steps": [
              {
                "color": "black",
                "value": null
              }
            ]
          },
          "unit": ""
        }
      },
      "gridPos": {
        "h": 5,
        "w": 2,
        "x": 6,
        "y": 2121
      },
      "id": 20,
      "links": [

      ],
      "options": {
        "colorMode": "background",
        "graphMode": "none",
        "justifyMode": "auto",
        "orientation": "vertical",
        "reduceOptions": {
          "calcs": [
            "lastNotNull"
          ],
          "fields": "",
          "values": false
        },
        "textMode": "auto"
      },
      "pluginVersion": "7",
      "targets": [
        {
          "expr": "1",
          "format": "time_series",
          "instant": false,
          "interval": "1m",
          "intervalFactor": 3,
          "legendFormat": "Overall Weight",
          "refId": "A"
        }
      ],
      "title": "",
      "transparent": false,
      "type": "stat"
    },
    {
      "aliasColors": {
      },
      "bars": false,
      "dashLength": 10,
      "dashes": false,
      "datasource": "$PROMETHEUS_DS",
      "decimals": 2,
      "description": "Rolling average SLO adherence for primary services. Higher is better.",
      "fill": 0,
      "fillGradient": 0,
      "gridPos": {
        "h": 5,
        "w": 16,
        "x": 8,
        "y": 2121
      },
      "id": 21,
      "legend": {
        "alignAsTable": true,
        "avg": true,
        "current": true,
        "hideEmpty": true,
        "max": true,
        "min": true,
        "rightSide": false,
        "show": false,
        "sideWidth": null,
        "total": false,
        "values": true
      },
      "lines": true,
      "linewidth": 2,
      "links": [

      ],
      "nullPointMode": "null",
      "options": {
        "dataLinks": [
          {
            "title": "registry service: Overview Dashboard",
            "url": "/d/registry-main/registry-overview?orgId=1&${__url_time_range}"
          }
        ]
      },
      "percentage": false,
      "pointradius": 3,
      "points": false,
      "renderer": "flot",
      "repeat": null,
      "seriesOverrides": [

      ],
      "spaceLength": 10,
      "stack": false,
      "steppedLine": false,
      "targets": [
        {
          "expr": "clamp_min(clamp_max(avg(\n  clamp_max(\n    avg_over_time(slo_observation_status{env=~\"ops|$environment\",environment=\"$environment\",monitor=~\"global|\",stage=\"$stage\",type=\"registry\"}[$__interval]),\n    1\n  )\n)\n,1),0)\n",
          "format": "time_series",
          "interval": "1m",
          "intervalFactor": 3,
          "legendFormat": "{{ type }}",
          "refId": "A"
        }
      ],
      "thresholds": [
        {
          "colorMode": "custom",
          "fill": true,
          "fillColor": "rgba(242, 73, 92, 0.5)",
          "line": false,
          "op": "lt",
          "value": 0.9995,
          "yaxis": "left"
        }
      ],
      "timeFrom": null,
      "timeShift": null,
      "title": "Container Registry: Availability ",
      "tooltip": {
        "shared": true,
        "sort": 2,
        "value_type": "individual"
      },
      "type": "graph",
      "xaxis": {
        "buckets": null,
        "mode": "time",
        "name": null,
        "show": true,
        "values": [

        ]
      },
      "yaxes": [
        {
          "format": "percentunit",
          "label": "SLA",
          "logBase": 1,
          "max": 1,
          "min": null,
          "show": true
        },
        {
          "format": "short",
          "label": null,
          "logBase": 1,
          "max": 1,
          "min": 0,
          "show": false
        }
      ]
    },
    {
      "datasource": "$PROMETHEUS_DS",
      "description": "Availability",
      "fieldConfig": {
        "defaults": {
          "decimals": 2,
          "displayName": "GitLab Pages",
          "links": [

          ],
          "mappings": [

          ],
          "max": 1,
          "min": 0,
          "thresholds": {
            "mode": "absolute",
            "steps": [
              {
                "color": "green",
                "value": 0.019999999999997797
              },
              {
                "color": "light-yellow",
                "value": 0.04999999999999449
              },
              {
                "color": "yellow",
                "value": 0.060000000000004494
              },
              {
                "color": "light-orange",
                "value": 0.5000000000000004
              },
              {
                "color": "orange",
                "value": 1.0000000000000009
              },
              {
                "color": "light-red",
                "value": 5.000000000000004
              },
              {
                "color": "red",
                "value": 100
              }
            ]
          },
          "unit": ""
        }
      },
      "gridPos": {
        "h": 5,
        "w": 6,
        "x": 0,
        "y": 2126
      },
      "id": 22,
      "links": [
        {
          "title": "web-pages service: Overview Dashboard",
          "url": "/d/web-pages-main/web-pages-overview?orgId=1&${__url_time_range}"
        }
      ],
      "options": {
        "colorMode": "background",
        "graphMode": "none",
        "justifyMode": "auto",
        "orientation": "auto",
        "reduceOptions": {
          "calcs": [
            "last"
          ],
          "fields": "",
          "values": true
        },
        "textMode": "auto"
      },
      "pluginVersion": "7",
      "targets": [
        {
          "expr": "(1 - avg(\n  clamp_max(\n    avg_over_time(slo_observation_status{env=~\"ops|$environment\",environment=\"$environment\",monitor=~\"global|\",stage=\"$stage\",type=\"web-pages\"}[$__range]),\n    1\n  )\n)\n) * ($__range_ms / (86400000 * 30.5)) * 100 * 100\n",
          "format": "time_series",
          "instant": true,
          "interval": "1m",
          "intervalFactor": 3,
          "legendFormat": "GitLab Pages: Availability Basis Points Spent",
          "refId": "A"
        }
      ],
      "title": "",
      "transparent": false,
      "type": "stat"
    },
    {
      "datasource": null,
      "description": "",
      "fieldConfig": {
        "defaults": {
          "decimals": 0,
          "displayName": "Weight",
          "links": [

          ],
          "mappings": [

          ],
          "thresholds": {
            "mode": "absolute",
            "steps": [
              {
                "color": "black",
                "value": null
              }
            ]
          },
          "unit": ""
        }
      },
      "gridPos": {
        "h": 5,
        "w": 2,
        "x": 6,
        "y": 2126
      },
      "id": 23,
      "links": [

      ],
      "options": {
        "colorMode": "background",
        "graphMode": "none",
        "justifyMode": "auto",
        "orientation": "vertical",
        "reduceOptions": {
          "calcs": [
            "lastNotNull"
          ],
          "fields": "",
          "values": false
        },
        "textMode": "auto"
      },
      "pluginVersion": "7",
      "targets": [
        {
          "expr": "0",
          "format": "time_series",
          "instant": false,
          "interval": "1m",
          "intervalFactor": 3,
          "legendFormat": "Overall Weight",
          "refId": "A"
        }
      ],
      "title": "",
      "transparent": false,
      "type": "stat"
    },
    {
      "aliasColors": {
      },
      "bars": false,
      "dashLength": 10,
      "dashes": false,
      "datasource": "$PROMETHEUS_DS",
      "decimals": 2,
      "description": "Rolling average SLO adherence for primary services. Higher is better.",
      "fill": 0,
      "fillGradient": 0,
      "gridPos": {
        "h": 5,
        "w": 16,
        "x": 8,
        "y": 2126
      },
      "id": 24,
      "legend": {
        "alignAsTable": true,
        "avg": true,
        "current": true,
        "hideEmpty": true,
        "max": true,
        "min": true,
        "rightSide": false,
        "show": false,
        "sideWidth": null,
        "total": false,
        "values": true
      },
      "lines": true,
      "linewidth": 2,
      "links": [

      ],
      "nullPointMode": "null",
      "options": {
        "dataLinks": [
          {
            "title": "web-pages service: Overview Dashboard",
            "url": "/d/web-pages-main/web-pages-overview?orgId=1&${__url_time_range}"
          }
        ]
      },
      "percentage": false,
      "pointradius": 3,
      "points": false,
      "renderer": "flot",
      "repeat": null,
      "seriesOverrides": [

      ],
      "spaceLength": 10,
      "stack": false,
      "steppedLine": false,
      "targets": [
        {
          "expr": "clamp_min(clamp_max(avg(\n  clamp_max(\n    avg_over_time(slo_observation_status{env=~\"ops|$environment\",environment=\"$environment\",monitor=~\"global|\",stage=\"$stage\",type=\"web-pages\"}[$__interval]),\n    1\n  )\n)\n,1),0)\n",
          "format": "time_series",
          "interval": "1m",
          "intervalFactor": 3,
          "legendFormat": "{{ type }}",
          "refId": "A"
        }
      ],
      "thresholds": [
        {
          "colorMode": "custom",
          "fill": true,
          "fillColor": "rgba(242, 73, 92, 0.5)",
          "line": false,
          "op": "lt",
          "value": 0.9995,
          "yaxis": "left"
        }
      ],
      "timeFrom": null,
      "timeShift": null,
      "title": "GitLab Pages: Availability ",
      "tooltip": {
        "shared": true,
        "sort": 2,
        "value_type": "individual"
      },
      "type": "graph",
      "xaxis": {
        "buckets": null,
        "mode": "time",
        "name": null,
        "show": true,
        "values": [

        ]
      },
      "yaxes": [
        {
          "format": "percentunit",
          "label": "SLA",
          "logBase": 1,
          "max": 1,
          "min": null,
          "show": true
        },
        {
          "format": "short",
          "label": null,
          "logBase": 1,
          "max": 1,
          "min": 0,
          "show": false
        }
      ]
    },
    {
      "content": "Made with ❤️ and [Grafonnet](https://github.com/grafana/grafonnet-lib). [Contribute to this dashboard on GitLab.com](https://gitlab.com/gitlab-com/runbooks/blob/master/dashboards)\n",
      "datasource": null,
      "gridPos": {
        "h": 2,
        "w": 24,
        "x": 0,
        "y": 110000
      },
      "id": 25,
      "mode": "markdown",
      "title": "Source",
      "type": "text"
    }
  ],
  "refresh": "",
  "rows": [

  ],
  "schemaVersion": 16,
  "style": "light",
  "tags": [
    "managed",
    "general",
    "general",
    "slas",
    "service-levels"
  ],
  "templating": {
    "list": [
      {
        "current": {
          "text": "Global",
          "value": "Global"
        },
        "hide": 0,
        "label": null,
        "name": "PROMETHEUS_DS",
        "options": [

        ],
        "query": "prometheus",
        "refresh": 1,
        "regex": "",
        "type": "datasource"
      },
      {
        "allValue": null,
        "current": {
          "text": "gprd",
          "value": "gprd"
        },
        "datasource": "$PROMETHEUS_DS",
        "hide": 0,
        "includeAll": false,
        "label": null,
        "multi": false,
        "name": "environment",
        "options": [

        ],
        "query": "label_values(gitlab_service_ops:rate, environment)",
        "refresh": 1,
        "regex": "",
        "sort": 1,
        "tagValuesQuery": "",
        "tags": [

        ],
        "tagsQuery": "",
        "type": "query",
        "useTags": false
      },
      {
        "allValue": null,
        "current": {
          "text": "main",
          "value": "main"
        },
        "hide": 0,
        "includeAll": false,
        "label": "",
        "multi": false,
        "name": "stage",
        "options": [
          {
            "text": "main",
            "value": "main"
          },
          {
            "text": "cny",
            "value": "cny"
          },
          {
            "text": "",
            "value": ""
          }
        ],
        "query": "main,cny,",
        "refresh": 0,
        "type": "custom"
      }
    ]
  },
  "time": {
    "from": "now-6h/m",
    "to": "now/m"
  },
  "timepicker": {
    "refresh_intervals": [
      "1m",
      "5m",
      "10m",
      "15m",
      "30m"
    ],
    "time_options": [
      "5m",
      "15m",
      "1h",
      "6h",
      "12h",
      "24h",
      "2d",
      "7d",
      "30d"
    ]
  },
  "timezone": "utc",
  "title": "general: Incident Budget Explorer",
  "uid": "general-incident-budget-explorer",
  "version": 1826
}