{
  "__inputs": [

  ],
  "__requires": [

  ],
  "annotations": {
    "list": [
      {
        "builtIn": 1,
        "datasource": "-- Grafana --",
        "enable": false,
        "hide": false,
        "iconColor": "#96D98D",
        "name": "deploy",
        "showIn": 0,
        "tags": [
          "deploy",
          "$environment"
        ],
        "type": "tags"
      },
      {
        "builtIn": 1,
        "datasource": "-- Grafana --",
        "enable": false,
        "hide": false,
        "iconColor": "#FFEE52",
        "name": "canary-deploy",
        "showIn": 0,
        "tags": [
          "deploy",
          "${environment}-cny"
        ],
        "type": "tags"
      },
      {
        "builtIn": 1,
        "datasource": "-- Grafana --",
        "enable": false,
        "hide": false,
        "iconColor": "#CA95E5",
        "name": "feature-flags",
        "showIn": 0,
        "tags": [
          "feature-flag",
          "${environment}"
        ],
        "type": "tags"
      }
    ]
  },
  "description": "Uploaded by https://gitlab.com/gitlab-com/runbooks/-/jobs/2522505129 at Mon May 30 12:59:56 UTC 2022",
  "editable": false,
  "gnetId": null,
  "graphTooltip": 1,
  "hideControls": false,
  "id": null,
  "links": [

  ],
  "panels": [
    {
      "aliasColors": {
      },
      "bars": false,
      "dashLength": 10,
      "dashes": false,
      "datasource": "$PROMETHEUS_DS",
      "decimals": 2,
      "description": "",
      "fill": 0,
      "fillGradient": 0,
      "gridPos": {
        "h": 10,
        "w": 12,
        "x": 0,
        "y": 0
      },
      "id": 2,
      "legend": {
        "alignAsTable": true,
        "avg": true,
        "current": true,
        "hideEmpty": true,
        "max": true,
        "min": true,
        "rightSide": false,
        "show": true,
        "sideWidth": null,
        "total": false,
        "values": true
      },
      "lines": true,
      "linewidth": 2,
      "links": [

      ],
      "nullPointMode": "null",
      "percentage": false,
      "pointradius": 5,
      "points": false,
      "renderer": "flot",
      "repeat": null,
      "seriesOverrides": [
        {
          "alias": "p95",
          "color": "#E7D551",
          "zindex": 3
        }
      ],
      "spaceLength": 10,
      "stack": false,
      "steppedLine": false,
      "targets": [
        {
          "expr": "marquee_customers_request_duration_seconds{env=\"$environment\", salesforce_url=\"https://gitlab.my.salesforce.com/${customer_id}\"}\n",
          "format": "time_series",
          "interval": "1m",
          "intervalFactor": 2,
          "legendFormat": "p95",
          "refId": "A"
        }
      ],
      "thresholds": [

      ],
      "timeFrom": null,
      "timeShift": null,
      "title": "Web Latency (logn scale)",
      "tooltip": {
        "shared": true,
        "sort": 2,
        "value_type": "individual"
      },
      "type": "graph",
      "xaxis": {
        "buckets": null,
        "mode": "time",
        "name": null,
        "show": true,
        "values": [

        ]
      },
      "yaxes": [
        {
          "format": "s",
          "label": "Duration",
          "logBase": 10,
          "max": null,
          "min": 0.05,
          "show": true
        },
        {
          "format": "short",
          "label": null,
          "logBase": 1,
          "max": 1,
          "min": 0,
          "show": false
        }
      ]
    },
    {
      "aliasColors": {
      },
      "bars": false,
      "dashLength": 10,
      "dashes": false,
      "datasource": "$PROMETHEUS_DS",
      "decimals": 0,
      "description": "",
      "fill": 0,
      "fillGradient": 0,
      "gridPos": {
        "h": 10,
        "w": 12,
        "x": 12,
        "y": 0
      },
      "id": 3,
      "legend": {
        "alignAsTable": true,
        "avg": true,
        "current": true,
        "hideEmpty": true,
        "max": true,
        "min": true,
        "rightSide": false,
        "show": true,
        "sideWidth": null,
        "total": false,
        "values": true
      },
      "lines": true,
      "linewidth": 2,
      "links": [

      ],
      "nullPointMode": "null",
      "percentage": false,
      "pointradius": 5,
      "points": false,
      "renderer": "flot",
      "repeat": null,
      "seriesOverrides": [
        {
          "alias": "RPS",
          "color": "#E7D551",
          "zindex": 3
        }
      ],
      "spaceLength": 10,
      "stack": false,
      "steppedLine": false,
      "targets": [
        {
          "expr": "rate(marquee_customers_requests_total{env=\"$environment\", salesforce_url=\"https://gitlab.my.salesforce.com/${customer_id}\"}[$__interval])\n",
          "format": "time_series",
          "interval": "2m",
          "intervalFactor": 1,
          "legendFormat": "RPS",
          "refId": "A"
        }
      ],
      "thresholds": [

      ],
      "timeFrom": null,
      "timeShift": null,
      "title": "Web Requests / Second",
      "tooltip": {
        "shared": true,
        "sort": 2,
        "value_type": "individual"
      },
      "type": "graph",
      "xaxis": {
        "buckets": null,
        "mode": "time",
        "name": null,
        "show": true,
        "values": [

        ]
      },
      "yaxes": [
        {
          "format": "short",
          "label": "",
          "logBase": 1,
          "max": null,
          "min": 0,
          "show": true
        },
        {
          "format": "short",
          "label": null,
          "logBase": 1,
          "max": 1,
          "min": 0,
          "show": false
        }
      ]
    },
    {
      "aliasColors": {
      },
      "bars": false,
      "dashLength": 10,
      "dashes": false,
      "datasource": "$PROMETHEUS_DS",
      "decimals": 0,
      "description": "",
      "fill": 0,
      "fillGradient": 0,
      "gridPos": {
        "h": 10,
        "w": 12,
        "x": 0,
        "y": 10
      },
      "id": 4,
      "legend": {
        "alignAsTable": true,
        "avg": true,
        "current": true,
        "hideEmpty": true,
        "max": true,
        "min": true,
        "rightSide": false,
        "show": true,
        "sideWidth": null,
        "total": false,
        "values": true
      },
      "lines": true,
      "linewidth": 2,
      "links": [

      ],
      "nullPointMode": "null",
      "percentage": false,
      "pointradius": 5,
      "points": false,
      "renderer": "flot",
      "repeat": null,
      "seriesOverrides": [
        {
          "alias": "RPS",
          "color": "#E7D551",
          "zindex": 3
        }
      ],
      "spaceLength": 10,
      "stack": false,
      "steppedLine": false,
      "targets": [
        {
          "expr": "increase(marquee_customers_requests_server_errors_total{env=\"$environment\", salesforce_url=\"https://gitlab.my.salesforce.com/${customer_id}\"}[$__interval])\n",
          "format": "time_series",
          "interval": "2m",
          "intervalFactor": 1,
          "legendFormat": "Errors",
          "refId": "A"
        }
      ],
      "thresholds": [

      ],
      "timeFrom": null,
      "timeShift": null,
      "title": "Web Errors",
      "tooltip": {
        "shared": true,
        "sort": 2,
        "value_type": "individual"
      },
      "type": "graph",
      "xaxis": {
        "buckets": null,
        "mode": "time",
        "name": null,
        "show": true,
        "values": [

        ]
      },
      "yaxes": [
        {
          "format": "short",
          "label": "",
          "logBase": 1,
          "max": null,
          "min": 0,
          "show": true
        },
        {
          "format": "short",
          "label": null,
          "logBase": 1,
          "max": 1,
          "min": 0,
          "show": false
        }
      ]
    },
    {
      "aliasColors": {
      },
      "bars": false,
      "dashLength": 10,
      "dashes": false,
      "datasource": "$PROMETHEUS_DS",
      "decimals": 0,
      "description": "",
      "fill": 0,
      "fillGradient": 0,
      "gridPos": {
        "h": 10,
        "w": 12,
        "x": 12,
        "y": 10
      },
      "id": 5,
      "legend": {
        "alignAsTable": true,
        "avg": true,
        "current": true,
        "hideEmpty": true,
        "max": true,
        "min": true,
        "rightSide": false,
        "show": true,
        "sideWidth": null,
        "total": false,
        "values": true
      },
      "lines": true,
      "linewidth": 2,
      "links": [

      ],
      "nullPointMode": "null",
      "percentage": false,
      "pointradius": 5,
      "points": false,
      "renderer": "flot",
      "repeat": null,
      "seriesOverrides": [
        {
          "alias": "RPS",
          "color": "#E7D551",
          "zindex": 3
        }
      ],
      "spaceLength": 10,
      "stack": false,
      "steppedLine": false,
      "targets": [
        {
          "expr": "clamp_min(clamp_max(rate(marquee_customers_requests_server_errors_total{env=\"$environment\", salesforce_url=\"https://gitlab.my.salesforce.com/${customer_id}\"}[$__interval])\n/\nrate(marquee_customers_requests_total{env=\"$environment\", salesforce_url=\"https://gitlab.my.salesforce.com/${customer_id}\"}[$__interval])\n,1),0)\n",
          "format": "time_series",
          "interval": "2m",
          "intervalFactor": 1,
          "legendFormat": "Error Rate (%)",
          "refId": "A"
        }
      ],
      "thresholds": null,
      "timeFrom": null,
      "timeShift": null,
      "title": "Error Rate",
      "tooltip": {
        "shared": true,
        "sort": 2,
        "value_type": "individual"
      },
      "type": "graph",
      "xaxis": {
        "buckets": null,
        "mode": "time",
        "name": null,
        "show": true,
        "values": [

        ]
      },
      "yaxes": [
        {
          "format": "percentunit",
          "label": "Percent",
          "logBase": 1,
          "max": null,
          "min": 0,
          "show": true
        },
        {
          "format": "short",
          "label": null,
          "logBase": 1,
          "max": 1,
          "min": 0,
          "show": false
        }
      ]
    },
    {
      "content": "Made with ❤️ and [Grafonnet](https://github.com/grafana/grafonnet-lib). [Contribute to this dashboard on GitLab.com](https://gitlab.com/gitlab-com/runbooks/blob/master/dashboards)\n",
      "datasource": null,
      "gridPos": {
        "h": 2,
        "w": 24,
        "x": 0,
        "y": 110000
      },
      "id": 6,
      "mode": "markdown",
      "title": "Source",
      "type": "text"
    }
  ],
  "refresh": "",
  "rows": [

  ],
  "schemaVersion": 16,
  "style": "light",
  "tags": [
    "managed",
    "marquee"
  ],
  "templating": {
    "list": [
      {
        "current": {
          "text": "Global",
          "value": "Global"
        },
        "hide": 0,
        "label": null,
        "name": "PROMETHEUS_DS",
        "options": [

        ],
        "query": "prometheus",
        "refresh": 1,
        "regex": "",
        "type": "datasource"
      },
      {
        "allValue": null,
        "current": {
          "text": "gprd",
          "value": "gprd"
        },
        "datasource": "$PROMETHEUS_DS",
        "hide": 0,
        "includeAll": false,
        "label": null,
        "multi": false,
        "name": "environment",
        "options": [

        ],
        "query": "label_values(gitlab_service_ops:rate, environment)",
        "refresh": 1,
        "regex": "",
        "sort": 1,
        "tagValuesQuery": "",
        "tags": [

        ],
        "tagsQuery": "",
        "type": "query",
        "useTags": false
      },
      {
        "allValue": null,
        "current": {
        },
        "datasource": null,
        "hide": 2,
        "includeAll": false,
        "label": "customer_id",
        "multi": false,
        "name": "customer_id",
        "options": [

        ],
        "query": "",
        "refresh": 0,
        "regex": "",
        "sort": 0,
        "tagValuesQuery": "",
        "tags": [

        ],
        "tagsQuery": "",
        "type": "query",
        "useTags": false
      }
    ]
  },
  "time": {
    "from": "now-6h/m",
    "to": "now/m"
  },
  "timepicker": {
    "refresh_intervals": [
      "1m",
      "5m",
      "10m",
      "15m",
      "30m"
    ],
    "time_options": [
      "5m",
      "15m",
      "1h",
      "6h",
      "12h",
      "24h",
      "2d",
      "7d",
      "30d"
    ]
  },
  "timezone": "utc",
  "title": "marquee: Customer Dashboard",
  "uid": "marquee-customer",
  "version": 2495
}